<?xml version="1.0" encoding="UTF-8" standalone="no"?>
<!-- Created with Inkscape (http://www.inkscape.org/) -->

<svg
   xmlns:dc="http://purl.org/dc/elements/1.1/"
   xmlns:cc="http://creativecommons.org/ns#"
   xmlns:rdf="http://www.w3.org/1999/02/22-rdf-syntax-ns#"
   xmlns:svg="http://www.w3.org/2000/svg"
   xmlns="http://www.w3.org/2000/svg"
   xmlns:sodipodi="http://sodipodi.sourceforge.net/DTD/sodipodi-0.dtd"
   xmlns:inkscape="http://www.inkscape.org/namespaces/inkscape"
   width="744.09448819"
   height="1052.3622047"
   id="svg2"
   version="1.1"
   inkscape:version="0.48.4 r9939"
   sodipodi:docname="Savvy.svg">
  <defs
     id="defs4">
    <clipPath
       clipPathUnits="userSpaceOnUse"
       id="clipPath3911">
      <rect
         style="fill:#f9f5f5;fill-opacity:1;stroke:none"
         id="rect3913"
         width="197.14279"
         height="40.000031"
         x="1788.5715"
         y="812.36224"
         ry="0" />
    </clipPath>
    <clipPath
       clipPathUnits="userSpaceOnUse"
       id="clipPath3911-6">
      <rect
         style="fill:#f9f5f5;fill-opacity:1;stroke:none"
         id="rect3913-5"
         width="197.14279"
         height="40.000031"
         x="1788.5715"
         y="812.36224"
         ry="0" />
    </clipPath>
  </defs>
  <sodipodi:namedview
     id="base"
     pagecolor="#ffffff"
     bordercolor="#666666"
     borderopacity="1.0"
     inkscape:pageopacity="0.0"
     inkscape:pageshadow="2"
     inkscape:zoom="0.45254834"
     inkscape:cx="-1963.7564"
     inkscape:cy="354.08602"
     inkscape:document-units="px"
     inkscape:current-layer="layer1"
     showgrid="false"
     inkscape:window-width="1366"
     inkscape:window-height="744"
     inkscape:window-x="0"
     inkscape:window-y="24"
     inkscape:window-maximized="1"
     showguides="true"
     inkscape:guide-bbox="true" />
  <metadata
     id="metadata7">
    <rdf:RDF>
      <cc:Work
         rdf:about="">
        <dc:format>image/svg+xml</dc:format>
        <dc:type
           rdf:resource="http://purl.org/dc/dcmitype/StillImage" />
        <dc:title></dc:title>
      </cc:Work>
    </rdf:RDF>
  </metadata>
  <g
     inkscape:label="Layer 1"
     inkscape:groupmode="layer"
     id="layer1">
    <path
       style="fill:#d2002c;stroke:#000000;stroke-width:0;stroke-linecap:butt;stroke-linejoin:miter;stroke-opacity:1;fill-opacity:1;stroke-miterlimit:4;stroke-dasharray:none"
       d="M 292.74603,905.10668 143.46032,845.10667 c -27.74961,-1.53454 -43.779288,19.51319 -28.21428,47.50001 l 167.32143,94.99999 c 7.42162,2.78766 15.37539,3.75391 22.32143,1.78572 60.02352,-9.2409 121.28433,-20.77293 177.85713,-27.85715 l 11.6072,0.17858 50.7143,13.21428 c 57.3064,5.45538 87.45233,-60.96243 47.9551,-88.443 l -96.5129,-67.14976 c 0.1999,-0.13324 -27.6173,-9.65144 -35.6078,-8.83884 -6.0348,0.61371 -133.64569,-2.69267 -135.96712,-0.60442 -27.72711,8.35419 -28.13841,37.32736 -5.89811,52.87982 -1.80465,3.43465 59.39873,4.73316 89.07723,10.22933 1.5991,0.29613 0.8913,4.79668 0.8913,4.79668 l -91.03996,24.36994 c -12.46451,4.36136 -18.1714,3.09137 -25.21924,2.93883 z"
       id="path3772"
       inkscape:connector-curvature="0"
       sodipodi:nodetypes="ccccccccscsccsccc"
       inkscape:export-filename="/home/avi/Desktop/Programming/Java/Android Application/AngelHackAppName/app/src/main/res/drawable/splashScreen.png"
       inkscape:export-xdpi="90"
       inkscape:export-ydpi="90" />
    <path
       sodipodi:type="arc"
       style="color:#000000;fill:none;stroke:#f7f7f7;stroke-width:24.77137756000000124;stroke-linecap:butt;stroke-linejoin:miter;stroke-miterlimit:4;stroke-opacity:1;stroke-dasharray:none;stroke-dashoffset:0;marker:none;visibility:visible;display:inline;overflow:visible;enable-background:accumulate"
       id="path3804"
       sodipodi:cx="203.21428"
       sodipodi:cy="448.79074"
       sodipodi:rx="83.214287"
       sodipodi:ry="116.42857"
       d="m 286.42857,448.79074 a 83.214287,116.42857 0 1 1 -166.42858,0 83.214287,116.42857 0 1 1 166.42858,0 z"
       transform="matrix(1.015154,0,0,0.72555484,106.82677,330.73008)"
       inkscape:export-filename="/home/avi/Desktop/Programming/Java/Android Application/AngelHackAppName/app/src/main/res/drawable/splashScreen.png"
       inkscape:export-xdpi="90"
       inkscape:export-ydpi="90" />
    <path
       style="fill:#f7f7f7;fill-opacity:1;stroke:#000000;stroke-width:2.3;stroke-linecap:butt;stroke-linejoin:miter;stroke-miterlimit:4;stroke-opacity:1;stroke-dasharray:13.8,2.3;stroke-dashoffset:0"
       d="m 368.51612,730.50678 53.62003,54.12949 c 12.85299,9.51288 34.87264,-2.48705 24.19906,-24.0717 l -53.49267,-54.00212 c -6.56631,9.52393 -14.70343,17.47707 -24.32642,23.94433 z"
       id="path3806"
       inkscape:connector-curvature="0"
       sodipodi:nodetypes="ccccc"
       inkscape:export-filename="/home/avi/Desktop/Programming/Java/Android Application/AngelHackAppName/app/src/main/res/drawable/splashScreen.png"
       inkscape:export-xdpi="90"
       inkscape:export-ydpi="90" />
    <path
       style="fill:#d2002c;fill-opacity:1;stroke:none"
       d="m 286.64838,609.3461 c -21.49773,4.89879 -33.25836,33.62105 -30.9805,33.86241 -5.82794,-8.44425 6.67267,-38.55721 30.9805,-33.86241 z"
       id="path3808"
       inkscape:connector-curvature="0"
       sodipodi:nodetypes="ccc"
       inkscape:export-filename="/home/avi/Desktop/Programming/Java/Android Application/AngelHackAppName/app/src/main/res/drawable/splashScreen.png"
       inkscape:export-xdpi="90"
       inkscape:export-ydpi="90" />
    <text
       xml:space="preserve"
       style="font-size:40px;font-style:normal;font-variant:normal;font-weight:normal;font-stretch:normal;line-height:125%;letter-spacing:0px;word-spacing:0px;fill:#d2002c;fill-opacity:1;stroke:#000000;font-family:Arcon;-inkscape-font-specification:Arcon;stroke-width:0;stroke-miterlimit:4;stroke-dasharray:none;stroke-opacity:1"
       x="86.857132"
       y="1110.9337"
       id="text3814"
       sodipodi:linespacing="125%"
       inkscape:export-filename="/home/avi/Desktop/Programming/Java/Android Application/AngelHackAppName/app/src/main/res/drawable/splashScreen.png"
       inkscape:export-xdpi="90"
       inkscape:export-ydpi="90"><tspan
         sodipodi:role="line"
         id="tspan3816"
         x="86.857132"
         y="1110.9337"
         style="font-size:144px;font-style:normal;font-variant:normal;font-weight:normal;font-stretch:normal;font-family:Arcon;-inkscape-font-specification:Arcon;fill:#d2002c;fill-opacity:1;stroke-width:0;stroke-miterlimit:4;stroke-dasharray:none;stroke:#000000;stroke-opacity:1">S A V V Y</tspan></text>
    <text
       xml:space="preserve"
       style="font-size:40px;font-style:normal;font-variant:normal;font-weight:normal;font-stretch:normal;line-height:125%;letter-spacing:0px;word-spacing:0px;fill:#d2002c;fill-opacity:1;stroke:none;font-family:Ubuntu;-inkscape-font-specification:Ubuntu;stroke-width:0;stroke-miterlimit:4;stroke-dasharray:none;stroke-opacity:1"
       x="193.42857"
       y="1157.505"
       id="text3818"
       sodipodi:linespacing="125%"
       inkscape:export-filename="/home/avi/Desktop/Programming/Java/Android Application/AngelHackAppName/app/src/main/res/drawable/splashScreen.png"
       inkscape:export-xdpi="90"
       inkscape:export-ydpi="90"><tspan
         sodipodi:role="line"
         id="tspan3820"
         x="193.42857"
         y="1157.505"
         style="font-style:normal;font-variant:normal;font-weight:normal;font-stretch:normal;font-family:Arcon;-inkscape-font-specification:Arcon;fill:#d2002c;fill-opacity:1;stroke-width:0;stroke-miterlimit:4;stroke-dasharray:none;stroke:none;stroke-opacity:1">How may I assist you?</tspan></text>
    <path
       sodipodi:type="arc"
       style="color:#000000;fill:none;stroke:#000000;stroke-width:2.87882757;stroke-linecap:butt;stroke-linejoin:miter;stroke-miterlimit:4;stroke-opacity:1;stroke-dasharray:17.27296594, 2.87882766;stroke-dashoffset:0;marker:none;visibility:visible;display:inline;overflow:visible;enable-background:accumulate"
       id="path3826"
       sodipodi:cx="277.28687"
       sodipodi:cy="634.15906"
       sodipodi:rx="87.378197"
       sodipodi:ry="92.934036"
       d="m 364.66506,634.15906 a 87.378197,92.934036 0 1 1 -174.75639,0 87.378197,92.934036 0 1 1 174.75639,0 z"
       transform="matrix(0.83532359,0,0,0.78538572,81.073766,157.82296)"
       inkscape:export-filename="/home/avi/Desktop/Programming/Java/Android Application/AngelHackAppName/app/src/main/res/drawable/splashScreen.png"
       inkscape:export-xdpi="90"
       inkscape:export-ydpi="90" />
    <path
       transform="matrix(1.0730192,0,0,1.0088712,16.123298,16.036344)"
       d="m 364.66506,634.15906 a 87.378197,92.934036 0 1 1 -174.75639,0 87.378197,92.934036 0 1 1 174.75639,0 z"
       sodipodi:ry="92.934036"
       sodipodi:rx="87.378197"
       sodipodi:cy="634.15906"
       sodipodi:cx="277.28687"
       id="path3828"
       style="color:#000000;fill:none;stroke:#000000;stroke-width:2.87882757;stroke-linecap:butt;stroke-linejoin:miter;stroke-miterlimit:4;stroke-opacity:1;stroke-dasharray:17.27296594, 2.87882766;stroke-dashoffset:0;marker:none;visibility:visible;display:inline;overflow:visible;enable-background:accumulate"
       sodipodi:type="arc"
       inkscape:export-filename="/home/avi/Desktop/Programming/Java/Android Application/AngelHackAppName/app/src/main/res/drawable/splashScreen.png"
       inkscape:export-xdpi="90"
       inkscape:export-ydpi="90" />
    <path
       style="fill:#f7f7f7;fill-opacity:1;stroke:none"
       d="m 368.08856,729.1799 10.71864,10.54007 21.23859,-22.45795 -9.70323,-11.22371 z"
       id="path3834"
       inkscape:connector-curvature="0"
       sodipodi:nodetypes="ccccc"
       inkscape:export-filename="/home/avi/Desktop/Programming/Java/Android Application/AngelHackAppName/app/src/main/res/drawable/splashScreen.png"
       inkscape:export-xdpi="90"
       inkscape:export-ydpi="90" />
    <rect
       style="fill:#283c67;fill-opacity:1;stroke:none"
       id="rect3795"
       width="665.71399"
       height="665.71399"
       x="836.57141"
       y="493.7912"
       inkscape:export-filename="/home/avi/Desktop/Programming/Java/Android Application/AngelHackAppName/app/src/main/res/drawable/splash_screen.png"
       inkscape:export-xdpi="90"
       inkscape:export-ydpi="90" />
    <path
       style="fill:#ffffff;fill-opacity:1;stroke:#ffffff;stroke-width:0;stroke-linecap:butt;stroke-linejoin:miter;stroke-miterlimit:4;stroke-opacity:1;stroke-dasharray:none"
       d="m 1098.1238,931.11463 -149.28569,-60 c -27.74961,-1.5345 -43.77929,19.5132 -28.21428,47.5 l 167.32147,94.99997 c 7.4216,2.7877 15.3754,3.7539 22.3214,1.7858 60.0235,-9.2409 121.2843,-20.773 177.8571,-27.8572 l 11.6072,0.1786 50.7143,13.2143 c 57.3064,5.4553 87.4524,-60.96247 47.9551,-88.44297 l -96.5129,-67.1498 c 0.1999,-0.1332 -27.6173,-9.6514 -35.6078,-8.8388 -6.0348,0.6137 -133.6457,-2.6927 -135.9671,-0.6045 -27.7271,8.3542 -28.1384,37.3274 -5.8981,52.8799 -1.8047,3.4346 59.3987,4.7331 89.0772,10.2293 1.5991,0.2961 0.8913,4.7967 0.8913,4.7967 l -91.0399,24.3699 c -12.4645,4.3614 -18.1714,3.0914 -25.2193,2.9388 z"
       id="path3772-5"
       inkscape:connector-curvature="0"
       sodipodi:nodetypes="ccccccccscsccsccc"
       inkscape:export-filename="/home/avi/Desktop/Programming/Java/Android Application/AngelHackAppName/app/src/main/res/drawable/splash_screen.png"
       inkscape:export-xdpi="90"
       inkscape:export-ydpi="90" />
    <text
       inkscape:export-ydpi="90"
       inkscape:export-xdpi="90"
       inkscape:export-filename="/home/avi/Desktop/Programming/Java/Android Application/AngelHackAppName/app/src/main/res/drawable/splash_screen.png"
       sodipodi:linespacing="125%"
       id="text3789"
       y="809.93463"
       x="931.38605"
       style="font-size:128.52258301px;font-style:normal;font-variant:normal;font-weight:normal;font-stretch:normal;line-height:125%;letter-spacing:0px;word-spacing:0px;fill:#455a64;fill-opacity:1;stroke:#ffffff;stroke-width:11.80000019;stroke-miterlimit:4;stroke-opacity:1;stroke-dasharray:none;font-family:Arcon;-inkscape-font-specification:Arcon"
       xml:space="preserve"><tspan
         style="font-size:462.68130493px;font-style:normal;font-variant:normal;font-weight:normal;font-stretch:normal;fill:#455a64;fill-opacity:1;stroke:#ffffff;stroke-width:11.80000019;stroke-miterlimit:4;stroke-opacity:1;stroke-dasharray:none;font-family:to whom it may concern type;-inkscape-font-specification:to whom it may concern type"
         y="809.93463"
         x="931.38605"
         id="tspan3791"
         sodipodi:role="line">savvy</tspan></text>
    <text
       xml:space="preserve"
       style="font-size:40px;font-style:normal;font-variant:normal;font-weight:normal;font-stretch:normal;line-height:125%;letter-spacing:0px;word-spacing:0px;fill:#d2002c;fill-opacity:1;stroke:#000000;stroke-width:0;stroke-miterlimit:4;stroke-opacity:1;stroke-dasharray:none;font-family:Arcon;-inkscape-font-specification:Arcon"
       x="229.92108"
       y="1633.4877"
       id="text3814-5-7"
       sodipodi:linespacing="125%"
       inkscape:export-filename="/home/avi/Desktop/Programming/Java/Android Application/AngelHackAppName/app/src/main/res/drawable/splashScreen.png"
       inkscape:export-xdpi="90"
       inkscape:export-ydpi="90"><tspan
         sodipodi:role="line"
         id="tspan3816-7-1"
         x="229.92108"
         y="1633.4877"
         style="font-size:144px;font-style:normal;font-variant:normal;font-weight:500;font-stretch:normal;fill:#d2002c;fill-opacity:1;stroke:#000000;stroke-width:0;stroke-miterlimit:4;stroke-opacity:1;stroke-dasharray:none;font-family:Ubuntu;-inkscape-font-specification:Ubuntu Medium">S A V V Y</tspan></text>
    <path
       sodipodi:type="arc"
       style="color:#000000;fill:none;stroke:#d2002c;stroke-width:13.39999962;stroke-linecap:butt;stroke-linejoin:miter;stroke-miterlimit:4;stroke-opacity:1;stroke-dasharray:none;stroke-dashoffset:0;marker:none;visibility:visible;display:inline;overflow:visible;enable-background:accumulate"
       id="path3836-2"
       sodipodi:cx="1022.8571"
       sodipodi:cy="768.79077"
       sodipodi:rx="182.85715"
       sodipodi:ry="152.14285"
       d="m 1205.7143,768.79077 a 182.85715,152.14285 0 1 1 -365.71433,0 182.85715,152.14285 0 1 1 365.71433,0 z"
       transform="matrix(1.798836,0,0,2.1619813,-1314.2379,-75.463373)" />
    <path
       style="fill:#d2002c;fill-opacity:1;stroke:#000000;stroke-width:0;stroke-linecap:butt;stroke-linejoin:miter;stroke-miterlimit:4;stroke-opacity:1;stroke-dasharray:none"
       d="m 473.53801,1691.1293 -149.28569,-60 c -27.74961,-1.5345 -43.7793,19.5132 -28.21428,47.5 l 167.32147,95 c 7.4216,2.7877 15.3754,3.7539 22.3214,1.7858 60.0235,-9.2409 121.2843,-20.773 177.8571,-27.8572 l 11.6072,0.1786 50.7143,13.2143 c 57.3064,5.4553 87.4524,-60.9625 47.9551,-88.443 l -96.5129,-67.1498 c 0.1999,-0.1332 -27.6173,-9.6514 -35.6078,-8.8388 -6.0348,0.6137 -133.6457,-2.6927 -135.9671,-0.6045 -27.7271,8.3542 -28.1384,37.3274 -5.8981,52.8799 -1.8047,3.4346 59.3987,4.7331 89.0772,10.2293 1.5991,0.2961 0.8913,4.7967 0.8913,4.7967 l -91.0399,24.3699 c -12.4645,4.3614 -18.1714,3.0914 -25.2193,2.9388 z"
       id="path3772-5-0"
       inkscape:connector-curvature="0"
       sodipodi:nodetypes="ccccccccscsccsccc"
       inkscape:export-filename="/home/avi/Desktop/Programming/Java/Android Application/AngelHackAppName/app/src/main/res/drawable/splashScreen.png"
       inkscape:export-xdpi="90"
       inkscape:export-ydpi="90" />
    <path
       sodipodi:type="arc"
       style="color:#000000;fill:none;stroke:#f7f7f7;stroke-width:24.77137756;stroke-linecap:butt;stroke-linejoin:miter;stroke-miterlimit:4;stroke-opacity:1;stroke-dasharray:none;stroke-dashoffset:0;marker:none;visibility:visible;display:inline;overflow:visible;enable-background:accumulate"
       id="path3804-1-9"
       sodipodi:cx="203.21428"
       sodipodi:cy="448.79074"
       sodipodi:rx="83.214287"
       sodipodi:ry="116.42857"
       d="m 286.42857,448.79074 a 83.214287,116.42857 0 1 1 -166.42858,0 83.214287,116.42857 0 1 1 166.42858,0 z"
       transform="matrix(0.79938393,0,0,0.57133881,357.82331,1151.8897)"
       inkscape:export-filename="/home/avi/Desktop/Programming/Java/Android Application/AngelHackAppName/app/src/main/res/drawable/splashScreen.png"
       inkscape:export-xdpi="90"
       inkscape:export-ydpi="90" />
    <path
       style="fill:#f7f7f7;fill-opacity:1;stroke:#000000;stroke-width:1.81113708;stroke-linecap:butt;stroke-linejoin:miter;stroke-miterlimit:4;stroke-opacity:1;stroke-dasharray:10.86682238, 1.81113706;stroke-dashoffset:0"
       d="m 563.89071,1466.6942 42.2232,42.6243 c 10.1211,7.491 27.4605,-1.9584 19.0556,-18.9552 l -42.1229,-42.5241 c -5.1706,7.4997 -11.5782,13.7624 -19.1559,18.855 z"
       id="path3806-3-3"
       inkscape:connector-curvature="0"
       sodipodi:nodetypes="ccccc"
       inkscape:export-filename="/home/avi/Desktop/Programming/Java/Android Application/AngelHackAppName/app/src/main/res/drawable/splashScreen.png"
       inkscape:export-xdpi="90"
       inkscape:export-ydpi="90" />
    <path
       style="fill:#d2002c;fill-opacity:1;stroke:none"
       d="m 499.42401,1371.2861 c -16.9285,3.8576 -26.1894,26.475 -24.3957,26.665 -4.5892,-6.6494 5.2544,-30.3619 24.3957,-26.665 z"
       id="path3808-7-3"
       inkscape:connector-curvature="0"
       sodipodi:nodetypes="ccc"
       inkscape:export-filename="/home/avi/Desktop/Programming/Java/Android Application/AngelHackAppName/app/src/main/res/drawable/splashScreen.png"
       inkscape:export-xdpi="90"
       inkscape:export-ydpi="90" />
    <path
       sodipodi:type="arc"
       style="color:#000000;fill:none;stroke:#000000;stroke-width:2.87882757;stroke-linecap:butt;stroke-linejoin:miter;stroke-miterlimit:4;stroke-opacity:1;stroke-dasharray:17.27296594, 2.87882766;stroke-dashoffset:0;marker:none;visibility:visible;display:inline;overflow:visible;enable-background:accumulate"
       id="path3826-6-8"
       sodipodi:cx="277.28687"
       sodipodi:cy="634.15906"
       sodipodi:rx="87.378197"
       sodipodi:ry="92.934036"
       d="m 364.66506,634.15906 a 87.378197,92.934036 0 1 1 -174.75639,0 87.378197,92.934036 0 1 1 174.75639,0 z"
       transform="matrix(0.65777631,0,0,0.61845269,337.54404,1015.7338)"
       inkscape:export-filename="/home/avi/Desktop/Programming/Java/Android Application/AngelHackAppName/app/src/main/res/drawable/splashScreen.png"
       inkscape:export-xdpi="90"
       inkscape:export-ydpi="90" />
    <path
       transform="matrix(0.84494993,0,0,0.79443653,286.39873,904.0838)"
       d="m 364.66506,634.15906 a 87.378197,92.934036 0 1 1 -174.75639,0 87.378197,92.934036 0 1 1 174.75639,0 z"
       sodipodi:ry="92.934036"
       sodipodi:rx="87.378197"
       sodipodi:cy="634.15906"
       sodipodi:cx="277.28687"
       id="path3828-0-0"
       style="color:#000000;fill:none;stroke:#000000;stroke-width:2.87882757;stroke-linecap:butt;stroke-linejoin:miter;stroke-miterlimit:4;stroke-opacity:1;stroke-dasharray:17.27296594, 2.87882766;stroke-dashoffset:0;marker:none;visibility:visible;display:inline;overflow:visible;enable-background:accumulate"
       sodipodi:type="arc"
       inkscape:export-filename="/home/avi/Desktop/Programming/Java/Android Application/AngelHackAppName/app/src/main/res/drawable/splashScreen.png"
       inkscape:export-xdpi="90"
       inkscape:export-ydpi="90" />
    <path
       style="fill:#f7f7f7;fill-opacity:1;stroke:none"
       d="m 563.55411,1465.6494 8.4404,8.2998 16.7243,-17.6846 -7.6408,-8.8381 z"
       id="path3834-1-6"
       inkscape:connector-curvature="0"
       sodipodi:nodetypes="ccccc"
       inkscape:export-filename="/home/avi/Desktop/Programming/Java/Android Application/AngelHackAppName/app/src/main/res/drawable/splashScreen.png"
       inkscape:export-xdpi="90"
       inkscape:export-ydpi="90" />
    <text
       inkscape:export-ydpi="90"
       inkscape:export-xdpi="90"
       inkscape:export-filename="/home/avi/Desktop/Programming/Java/Android Application/AngelHackAppName/app/src/main/res/drawable/splashScreen.png"
       sodipodi:linespacing="125%"
       id="text3895-4"
       y="849.47308"
       x="1531.6801"
       style="font-size:40px;font-style:normal;font-variant:normal;font-weight:normal;font-stretch:normal;line-height:125%;letter-spacing:0px;word-spacing:0px;fill:#f7f7f7;fill-opacity:1;stroke:#000000;stroke-width:0;stroke-miterlimit:4;stroke-opacity:1;stroke-dasharray:none;font-family:Arcon;-inkscape-font-specification:Arcon"
       xml:space="preserve"
       clip-path="url(#clipPath3911-6)"
       transform="translate(-1301.8252,784.77228)"><tspan
         style="font-size:144px;font-style:normal;font-variant:normal;font-weight:500;font-stretch:normal;fill:#f7f7f7;fill-opacity:1;stroke:#000000;stroke-width:0;stroke-miterlimit:4;stroke-opacity:1;stroke-dasharray:none;font-family:Ubuntu;-inkscape-font-specification:Ubuntu Medium"
         y="849.47308"
         x="1531.6801"
         id="tspan3897-5"
         sodipodi:role="line">S A V V Y</tspan></text>
    <text
       xml:space="preserve"
       style="font-size:128.52258301000000529px;font-style:normal;font-variant:normal;font-weight:normal;font-stretch:normal;line-height:125%;letter-spacing:0px;word-spacing:0px;fill:#ffffff;fill-opacity:1;stroke:#ffffff;stroke-width:8.90000000000000036;stroke-miterlimit:4;stroke-opacity:1;stroke-dasharray:none;font-family:Arcon;-inkscape-font-specification:Arcon"
       x="931.38605"
       y="809.93463"
       id="text3814-5"
       sodipodi:linespacing="125%"
       inkscape:export-filename="/home/avi/Desktop/Programming/Java/Android Application/AngelHackAppName/app/src/main/res/drawable/splash_screen.png"
       inkscape:export-xdpi="90"
       inkscape:export-ydpi="90"><tspan
         sodipodi:role="line"
         id="tspan3816-7"
         x="931.38605"
         y="809.93463"
         style="font-size:462.68130493000001024px;font-style:normal;font-variant:normal;font-weight:normal;font-stretch:normal;fill:#ffffff;fill-opacity:1;stroke:#ffffff;stroke-width:8.90000000000000036;stroke-miterlimit:4;stroke-opacity:1;stroke-dasharray:none;font-family:to whom it may concern type;-inkscape-font-specification:to whom it may concern type">savvy</tspan></text>
    <rect
       style="fill:#ff9308;fill-opacity:1;stroke:none"
       id="rect3795-2"
       width="665.71399"
       height="665.71399"
       x="1175.7145"
       y="1205.2195"
       inkscape:export-filename="/home/avi/Desktop/Programming/Java/Android Application/AngelHackAppName/app/src/main/res/drawable/splash_screen.png"
       inkscape:export-xdpi="90"
       inkscape:export-ydpi="90" />
    <rect
       style="fill:#ffd108;fill-opacity:1;fill-rule:nonzero;stroke:none"
       id="rect3848"
       width="68.571449"
       height="650"
       x="1788.5714"
       y="1239.5051" />
    <path
       style="fill:#ffffff;fill-opacity:1;stroke:#ffffff;stroke-width:0;stroke-linecap:butt;stroke-linejoin:miter;stroke-miterlimit:4;stroke-opacity:1;stroke-dasharray:none"
       d="m 1437.2668,1642.5429 -149.2857,-60 c -27.7496,-1.5345 -43.7793,19.5132 -28.2142,47.5 l 167.3214,94.9999 c 7.4216,2.7877 15.3754,3.7539 22.3214,1.7858 60.0235,-9.2409 121.2843,-20.773 177.8571,-27.8572 l 11.6072,0.1786 50.7143,13.2143 c 57.3064,5.4553 87.4524,-60.9624 47.9551,-88.4429 l -96.5129,-67.1498 c 0.1999,-0.1332 -27.6173,-9.6514 -35.6078,-8.8388 -6.0348,0.6137 -133.6457,-2.6927 -135.9671,-0.6045 -27.7271,8.3542 -28.1384,37.3274 -5.8981,52.8799 -1.8047,3.4346 59.3987,4.7331 89.0772,10.2293 1.5991,0.2961 0.8913,4.7967 0.8913,4.7967 l -91.0399,24.3699 c -12.4645,4.3614 -18.1714,3.0914 -25.2193,2.9388 z"
       id="path3772-5-5"
       inkscape:connector-curvature="0"
       sodipodi:nodetypes="ccccccccscsccsccc"
       inkscape:export-filename="/home/avi/Desktop/Programming/Java/Android Application/AngelHackAppName/app/src/main/res/drawable/splash_screen.png"
       inkscape:export-xdpi="90"
       inkscape:export-ydpi="90" />
    <text
       inkscape:export-ydpi="90"
       inkscape:export-xdpi="90"
       inkscape:export-filename="/home/avi/Desktop/Programming/Java/Android Application/AngelHackAppName/app/src/main/res/drawable/splash_screen.png"
       sodipodi:linespacing="125%"
       id="text3789-8"
       y="1521.3629"
       x="1270.5291"
       style="font-size:128.52258301px;font-style:normal;font-variant:normal;font-weight:normal;font-stretch:normal;line-height:125%;letter-spacing:0px;word-spacing:0px;fill:#455a64;fill-opacity:1;stroke:#ffffff;stroke-width:11.80000019;stroke-miterlimit:4;stroke-opacity:1;stroke-dasharray:none;font-family:Arcon;-inkscape-font-specification:Arcon"
       xml:space="preserve"><tspan
         style="font-size:462.68130493px;font-style:normal;font-variant:normal;font-weight:normal;font-stretch:normal;fill:#455a64;fill-opacity:1;stroke:#ffffff;stroke-width:11.80000019;stroke-miterlimit:4;stroke-opacity:1;stroke-dasharray:none;font-family:to whom it may concern type;-inkscape-font-specification:to whom it may concern type"
         y="1521.3629"
         x="1270.5291"
         id="tspan3791-5"
         sodipodi:role="line">savvy</tspan></text>
    <text
       xml:space="preserve"
       style="font-size:128.52258301px;font-style:normal;font-variant:normal;font-weight:normal;font-stretch:normal;line-height:125%;letter-spacing:0px;word-spacing:0px;fill:#ffffff;fill-opacity:1;stroke:#ffffff;stroke-width:8.89999962;stroke-miterlimit:4;stroke-opacity:1;stroke-dasharray:none;font-family:Arcon;-inkscape-font-specification:Arcon"
       x="1270.5291"
       y="1521.3629"
       id="text3814-5-1"
       sodipodi:linespacing="125%"
       inkscape:export-filename="/home/avi/Desktop/Programming/Java/Android Application/AngelHackAppName/app/src/main/res/drawable/splash_screen.png"
       inkscape:export-xdpi="90"
       inkscape:export-ydpi="90"><tspan
         sodipodi:role="line"
         id="tspan3816-7-0"
         x="1270.5291"
         y="1521.3629"
         style="font-size:462.68130493px;font-style:normal;font-variant:normal;font-weight:normal;font-stretch:normal;fill:#ffffff;fill-opacity:1;stroke:#ffffff;stroke-width:8.89999962;stroke-miterlimit:4;stroke-opacity:1;stroke-dasharray:none;font-family:to whom it may concern type;-inkscape-font-specification:to whom it may concern type">savvy</tspan></text>
    <path
       style="fill:#d2002c;fill-opacity:1;stroke:#000000;stroke-width:0;stroke-linecap:butt;stroke-linejoin:miter;stroke-miterlimit:4;stroke-opacity:1;stroke-dasharray:none"
       d="m 1556.469,2253.0053 -149.2857,-60 c -27.7497,-1.5345 -43.7793,19.5132 -28.2143,47.5 l 167.3214,95 c 7.4216,2.7877 15.3754,3.7539 22.3214,1.7857 60.0236,-9.2409 121.2844,-20.7729 177.8572,-27.8571 l 11.6072,0.1786 50.7143,13.2142 c 57.3064,5.4554 87.4523,-60.9624 47.9551,-88.443 l -96.5129,-67.1497 c 0.1999,-0.1333 -27.6173,-9.6515 -35.6078,-8.8389 -6.0348,0.6137 -133.6457,-2.6926 -135.9672,-0.6044 -27.7271,8.3542 -28.1384,37.3274 -5.8981,52.8798 -1.8046,3.4347 59.3988,4.7332 89.0773,10.2294 1.5991,0.2961 0.8913,4.7966 0.8913,4.7966 l -91.04,24.37 c -12.4645,4.3613 -18.1714,3.0914 -25.2192,2.9388 z"
       id="path3772-1"
       inkscape:connector-curvature="0"
       sodipodi:nodetypes="ccccccccscsccsccc"
       inkscape:export-filename="/home/avi/Desktop/Programming/Java/Android Application/AngelHackAppName/app/src/main/res/drawable/splashScreen.png"
       inkscape:export-xdpi="90"
       inkscape:export-ydpi="90" />
    <path
       sodipodi:type="arc"
       style="color:#000000;fill:none;stroke:#f7f7f7;stroke-width:24.77137756;stroke-linecap:butt;stroke-linejoin:miter;stroke-miterlimit:4;stroke-opacity:1;stroke-dasharray:none;stroke-dashoffset:0;marker:none;visibility:visible;display:inline;overflow:visible;enable-background:accumulate"
       id="path3804-1"
       sodipodi:cx="203.21428"
       sodipodi:cy="448.79074"
       sodipodi:rx="83.214287"
       sodipodi:ry="116.42857"
       d="m 286.42857,448.79074 a 83.214287,116.42857 0 1 1 -166.42858,0 83.214287,116.42857 0 1 1 166.42858,0 z"
       transform="matrix(1.015154,0,0,0.72555484,1370.5497,1678.6287)"
       inkscape:export-filename="/home/avi/Desktop/Programming/Java/Android Application/AngelHackAppName/app/src/main/res/drawable/splashScreen.png"
       inkscape:export-xdpi="90"
       inkscape:export-ydpi="90" />
    <path
       style="fill:#f7f7f7;fill-opacity:1;stroke:#000000;stroke-width:2.29999995;stroke-linecap:butt;stroke-linejoin:miter;stroke-miterlimit:4;stroke-opacity:1;stroke-dasharray:13.8, 2.3;stroke-dashoffset:0"
       d="m 1632.2391,2078.4054 53.62,54.1295 c 12.853,9.5129 34.8726,-2.487 24.199,-24.0717 l -53.4926,-54.0021 c -6.5663,9.5239 -14.7035,17.4771 -24.3264,23.9443 z"
       id="path3806-8"
       inkscape:connector-curvature="0"
       sodipodi:nodetypes="ccccc"
       inkscape:export-filename="/home/avi/Desktop/Programming/Java/Android Application/AngelHackAppName/app/src/main/res/drawable/splashScreen.png"
       inkscape:export-xdpi="90"
       inkscape:export-ydpi="90" />
    <path
       style="fill:#d2002c;fill-opacity:1;stroke:none"
       d="m 1550.3713,1957.2447 c -21.4977,4.8988 -33.2583,33.6211 -30.9805,33.8624 -5.8279,-8.4442 6.6727,-38.5572 30.9805,-33.8624 z"
       id="path3808-1"
       inkscape:connector-curvature="0"
       sodipodi:nodetypes="ccc"
       inkscape:export-filename="/home/avi/Desktop/Programming/Java/Android Application/AngelHackAppName/app/src/main/res/drawable/splashScreen.png"
       inkscape:export-xdpi="90"
       inkscape:export-ydpi="90" />
    <text
       xml:space="preserve"
       style="font-size:40px;font-style:normal;font-variant:normal;font-weight:normal;font-stretch:normal;line-height:125%;letter-spacing:0px;word-spacing:0px;fill:#d2002c;fill-opacity:1;stroke:#000000;stroke-width:0;stroke-miterlimit:4;stroke-opacity:1;stroke-dasharray:none;font-family:Arcon;-inkscape-font-specification:Arcon"
       x="1350.58"
       y="2458.8323"
       id="text3814-7"
       sodipodi:linespacing="125%"
       inkscape:export-filename="/home/avi/Desktop/Programming/Java/Android Application/AngelHackAppName/app/src/main/res/drawable/splashScreen.png"
       inkscape:export-xdpi="90"
       inkscape:export-ydpi="90"><tspan
         sodipodi:role="line"
         id="tspan3816-2"
         x="1350.58"
         y="2458.8323"
         style="font-size:144px;font-style:normal;font-variant:normal;font-weight:normal;font-stretch:normal;fill:#d2002c;fill-opacity:1;stroke:#000000;stroke-width:0;stroke-miterlimit:4;stroke-opacity:1;stroke-dasharray:none;font-family:Arcon;-inkscape-font-specification:Arcon">S A V V Y</tspan></text>
    <text
       xml:space="preserve"
       style="font-size:40px;font-style:normal;font-variant:normal;font-weight:normal;font-stretch:normal;line-height:125%;letter-spacing:0px;word-spacing:0px;fill:#d2002c;fill-opacity:1;stroke:none;font-family:Ubuntu;-inkscape-font-specification:Ubuntu"
       x="1457.1515"
       y="2505.4036"
       id="text3818-7"
       sodipodi:linespacing="125%"
       inkscape:export-filename="/home/avi/Desktop/Programming/Java/Android Application/AngelHackAppName/app/src/main/res/drawable/splashScreen.png"
       inkscape:export-xdpi="90"
       inkscape:export-ydpi="90"><tspan
         sodipodi:role="line"
         id="tspan3820-2"
         x="1457.1515"
         y="2505.4036"
         style="font-style:normal;font-variant:normal;font-weight:normal;font-stretch:normal;fill:#d2002c;fill-opacity:1;stroke:none;font-family:Arcon;-inkscape-font-specification:Arcon">How may I assist you?</tspan></text>
    <path
       sodipodi:type="arc"
       style="color:#000000;fill:none;stroke:#000000;stroke-width:2.87882757;stroke-linecap:butt;stroke-linejoin:miter;stroke-miterlimit:4;stroke-opacity:1;stroke-dasharray:17.27296594, 2.87882766;stroke-dashoffset:0;marker:none;visibility:visible;display:inline;overflow:visible;enable-background:accumulate"
       id="path3826-0"
       sodipodi:cx="277.28687"
       sodipodi:cy="634.15906"
       sodipodi:rx="87.378197"
       sodipodi:ry="92.934036"
       d="m 364.66506,634.15906 a 87.378197,92.934036 0 1 1 -174.75639,0 87.378197,92.934036 0 1 1 174.75639,0 z"
       transform="matrix(0.83532359,0,0,0.78538572,1344.7967,1505.7216)"
       inkscape:export-filename="/home/avi/Desktop/Programming/Java/Android Application/AngelHackAppName/app/src/main/res/drawable/splashScreen.png"
       inkscape:export-xdpi="90"
       inkscape:export-ydpi="90" />
    <path
       transform="matrix(1.0730192,0,0,1.0088712,1279.8462,1363.935)"
       d="m 364.66506,634.15906 a 87.378197,92.934036 0 1 1 -174.75639,0 87.378197,92.934036 0 1 1 174.75639,0 z"
       sodipodi:ry="92.934036"
       sodipodi:rx="87.378197"
       sodipodi:cy="634.15906"
       sodipodi:cx="277.28687"
       id="path3828-0"
       style="color:#000000;fill:none;stroke:#000000;stroke-width:2.87882757;stroke-linecap:butt;stroke-linejoin:miter;stroke-miterlimit:4;stroke-opacity:1;stroke-dasharray:17.27296594, 2.87882766;stroke-dashoffset:0;marker:none;visibility:visible;display:inline;overflow:visible;enable-background:accumulate"
       sodipodi:type="arc"
       inkscape:export-filename="/home/avi/Desktop/Programming/Java/Android Application/AngelHackAppName/app/src/main/res/drawable/splashScreen.png"
       inkscape:export-xdpi="90"
       inkscape:export-ydpi="90" />
    <path
       style="fill:#f7f7f7;fill-opacity:1;stroke:none"
       d="m 1631.8115,2077.0785 10.7186,10.5401 21.2386,-22.4579 -9.7032,-11.2238 z"
       id="path3834-5"
       inkscape:connector-curvature="0"
       sodipodi:nodetypes="ccccc"
       inkscape:export-filename="/home/avi/Desktop/Programming/Java/Android Application/AngelHackAppName/app/src/main/res/drawable/splashScreen.png"
       inkscape:export-xdpi="90"
       inkscape:export-ydpi="90" />
    <path
       sodipodi:type="arc"
       style="color:#000000;fill:none;stroke:#f7f7f7;stroke-width:24.77137756;stroke-linecap:butt;stroke-linejoin:miter;stroke-miterlimit:4;stroke-opacity:1;stroke-dasharray:none;stroke-dashoffset:0;marker:none;visibility:visible;display:inline;overflow:visible;enable-background:accumulate"
       id="path3804-1-0"
       sodipodi:cx="203.21428"
       sodipodi:cy="448.79074"
       sodipodi:rx="83.214287"
       sodipodi:ry="116.42857"
       d="m 286.42857,448.79074 a 83.214287,116.42857 0 1 1 -166.42858,0 83.214287,116.42857 0 1 1 166.42858,0 z"
       transform="matrix(2.6749482,0,0,1.9118494,196.95636,1372.9408)"
       inkscape:export-filename="/home/avi/Desktop/Programming/Java/Android Application/AngelHackAppName/app/src/main/res/drawable/splashScreen.png"
       inkscape:export-xdpi="90"
       inkscape:export-ydpi="90" />
    <text
       xml:space="preserve"
       style="font-size:138.31370544px;font-style:normal;font-variant:normal;font-weight:normal;font-stretch:normal;line-height:125%;letter-spacing:0px;word-spacing:0px;fill:#d2002c;fill-opacity:1;stroke:#000000;stroke-width:0;stroke-miterlimit:4;stroke-opacity:1;stroke-dasharray:none;font-family:Arcon;-inkscape-font-specification:Arcon"
       x="654.18286"
       y="2373.5784"
       id="text3814-7-4"
       sodipodi:linespacing="125%"
       inkscape:export-filename="/home/avi/Desktop/Programming/Java/Android Application/AngelHackAppName/app/src/main/res/drawable/splashScreen.png"
       inkscape:export-xdpi="90"
       inkscape:export-ydpi="90"><tspan
         sodipodi:role="line"
         id="tspan3816-2-9"
         x="654.18286"
         y="2373.5784"
         style="font-size:497.92935181px;font-style:normal;font-variant:normal;font-weight:normal;font-stretch:normal;fill:#d2002c;fill-opacity:1;stroke:#000000;stroke-width:0;stroke-miterlimit:4;stroke-opacity:1;stroke-dasharray:none;font-family:Arcon;-inkscape-font-specification:Arcon">S</tspan></text>
    <path
       style="fill:#f7f7f7;fill-opacity:1;stroke:#000000;stroke-width:6.06053925;stroke-linecap:butt;stroke-linejoin:miter;stroke-miterlimit:4;stroke-opacity:1;stroke-dasharray:36.3632363, 6.06053938;stroke-dashoffset:0"
       d="m 886.51246,2426.3593 141.28964,142.6322 c 33.8679,25.0666 91.8899,-6.5533 63.7648,-63.4294 L 950.61296,2363.2657 c -17.3024,25.0956 -38.744,46.0524 -64.1005,63.0936 z"
       id="path3806-8-7"
       inkscape:connector-curvature="0"
       sodipodi:nodetypes="ccccc"
       inkscape:export-filename="/home/avi/Desktop/Programming/Java/Android Application/AngelHackAppName/app/src/main/res/drawable/splashScreen.png"
       inkscape:export-xdpi="90"
       inkscape:export-ydpi="90" />
    <path
       style="fill:#d2002c;fill-opacity:1;stroke:none"
       d="m 670.78938,2107.0988 c -56.64681,12.9084 -87.63619,88.5921 -81.63415,89.228 -15.35662,-22.2506 17.58268,-101.5989 81.63415,-89.228 z"
       id="path3808-1-8"
       inkscape:connector-curvature="0"
       sodipodi:nodetypes="ccc"
       inkscape:export-filename="/home/avi/Desktop/Programming/Java/Android Application/AngelHackAppName/app/src/main/res/drawable/splashScreen.png"
       inkscape:export-xdpi="90"
       inkscape:export-ydpi="90" />
    <path
       sodipodi:type="arc"
       style="color:#000000;fill:none;stroke:#000000;stroke-width:2.87882757;stroke-linecap:butt;stroke-linejoin:miter;stroke-miterlimit:4;stroke-opacity:1;stroke-dasharray:17.27296594, 2.87882766;stroke-dashoffset:0;marker:none;visibility:visible;display:inline;overflow:visible;enable-background:accumulate"
       id="path3826-0-2"
       sodipodi:cx="277.28687"
       sodipodi:cy="634.15906"
       sodipodi:rx="87.378197"
       sodipodi:ry="92.934036"
       d="m 364.66506,634.15906 a 87.378197,92.934036 0 1 1 -174.75639,0 87.378197,92.934036 0 1 1 174.75639,0 z"
       transform="matrix(2.201092,0,0,2.0695048,129.09676,917.3277)"
       inkscape:export-filename="/home/avi/Desktop/Programming/Java/Android Application/AngelHackAppName/app/src/main/res/drawable/splashScreen.png"
       inkscape:export-xdpi="90"
       inkscape:export-ydpi="90" />
    <path
       transform="matrix(2.827424,0,0,2.6583929,-42.048924,543.71759)"
       d="m 364.66506,634.15906 a 87.378197,92.934036 0 1 1 -174.75639,0 87.378197,92.934036 0 1 1 174.75639,0 z"
       sodipodi:ry="92.934036"
       sodipodi:rx="87.378197"
       sodipodi:cy="634.15906"
       sodipodi:cx="277.28687"
       id="path3828-0-5"
       style="color:#000000;fill:none;stroke:#000000;stroke-width:2.87882757;stroke-linecap:butt;stroke-linejoin:miter;stroke-miterlimit:4;stroke-opacity:1;stroke-dasharray:17.27296594, 2.87882766;stroke-dashoffset:0;marker:none;visibility:visible;display:inline;overflow:visible;enable-background:accumulate"
       sodipodi:type="arc"
       inkscape:export-filename="/home/avi/Desktop/Programming/Java/Android Application/AngelHackAppName/app/src/main/res/drawable/splashScreen.png"
       inkscape:export-xdpi="90"
       inkscape:export-ydpi="90" />
    <path
       style="fill:#f7f7f7;fill-opacity:1;stroke:none"
       d="m 885.38566,2422.8629 28.2437,27.7733 55.9641,-59.1769 -25.5681,-29.5749 z"
       id="path3834-5-8"
       inkscape:connector-curvature="0"
       sodipodi:nodetypes="ccccc"
       inkscape:export-filename="/home/avi/Desktop/Programming/Java/Android Application/AngelHackAppName/app/src/main/res/drawable/splashScreen.png"
       inkscape:export-xdpi="90"
       inkscape:export-ydpi="90" />
    <path
       style="fill:#d2002c;fill-opacity:1;stroke:#000000;stroke-width:0;stroke-linecap:butt;stroke-linejoin:miter;stroke-miterlimit:4;stroke-opacity:1;stroke-dasharray:none"
       d="m -1265.5703,745.2999 -149.2857,-60 c -27.7497,-1.5345 -43.7793,19.5132 -28.2143,47.5 l 167.3214,95 c 7.4216,2.7877 15.3754,3.7539 22.3214,1.7857 60.0236,-9.2409 121.2844,-20.7729 177.8572,-27.8571 l 11.6072,0.1786 50.7143,13.2142 c 57.30639,5.4554 87.45229,-60.9624 47.95509,-88.443 l -96.51289,-67.1497 c 0.1999,-0.1333 -27.6173,-9.6515 -35.6078,-8.8389 -6.0348,0.6137 -133.6457,-2.6926 -135.9672,-0.6044 -27.7271,8.3542 -28.1384,37.3274 -5.8981,52.8798 -1.8046,3.4347 59.3988,4.7332 89.0773,10.2294 1.5991,0.2961 0.8913,4.7966 0.8913,4.7966 l -91.04,24.37 c -12.4645,4.3613 -18.1714,3.0914 -25.2192,2.9388 z"
       id="path3772-1-3"
       inkscape:connector-curvature="0"
       sodipodi:nodetypes="ccccccccscsccsccc"
       inkscape:export-filename="/home/avi/Desktop/Programming/Java/Android Application/AngelHackAppName/app/src/main/res/drawable/splashScreen.png"
       inkscape:export-xdpi="90"
       inkscape:export-ydpi="90" />
    <path
       sodipodi:type="arc"
       style="color:#000000;fill:none;stroke:#f7f7f7;stroke-width:24.77137756;stroke-linecap:butt;stroke-linejoin:miter;stroke-miterlimit:4;stroke-opacity:1;stroke-dasharray:none;stroke-dashoffset:0;marker:none;visibility:visible;display:inline;overflow:visible;enable-background:accumulate"
       id="path3804-1-4"
       sodipodi:cx="203.21428"
       sodipodi:cy="448.79074"
       sodipodi:rx="83.214287"
       sodipodi:ry="116.42857"
       d="m 286.42857,448.79074 a 83.214287,116.42857 0 1 1 -166.42858,0 83.214287,116.42857 0 1 1 166.42858,0 z"
       transform="matrix(1.015154,0,0,0.72555484,-1451.4896,170.9233)"
       inkscape:export-filename="/home/avi/Desktop/Programming/Java/Android Application/AngelHackAppName/app/src/main/res/drawable/splashScreen.png"
       inkscape:export-xdpi="90"
       inkscape:export-ydpi="90" />
    <path
       style="fill:#f7f7f7;fill-opacity:1;stroke:#000000;stroke-width:2.29999995;stroke-linecap:butt;stroke-linejoin:miter;stroke-miterlimit:4;stroke-opacity:1;stroke-dasharray:13.8, 2.3;stroke-dashoffset:0"
       d="m -1189.8002,570.7 53.62,54.1295 c 12.853,9.5129 34.8726,-2.487 24.199,-24.0717 l -53.4926,-54.0021 c -6.5663,9.5239 -14.7035,17.4771 -24.3264,23.9443 z"
       id="path3806-8-4"
       inkscape:connector-curvature="0"
       sodipodi:nodetypes="ccccc"
       inkscape:export-filename="/home/avi/Desktop/Programming/Java/Android Application/AngelHackAppName/app/src/main/res/drawable/splashScreen.png"
       inkscape:export-xdpi="90"
       inkscape:export-ydpi="90" />
    <path
       style="fill:#d2002c;fill-opacity:1;stroke:none"
       d="m -1271.668,449.5393 c -21.4977,4.8988 -33.2583,33.6211 -30.9805,33.8624 -5.8279,-8.4442 6.6727,-38.5572 30.9805,-33.8624 z"
       id="path3808-1-9"
       inkscape:connector-curvature="0"
       sodipodi:nodetypes="ccc"
       inkscape:export-filename="/home/avi/Desktop/Programming/Java/Android Application/AngelHackAppName/app/src/main/res/drawable/splashScreen.png"
       inkscape:export-xdpi="90"
       inkscape:export-ydpi="90" />
    <text
       xml:space="preserve"
       style="font-size:40px;font-style:normal;font-variant:normal;font-weight:normal;font-stretch:normal;line-height:125%;letter-spacing:0px;word-spacing:0px;fill:#d2002c;fill-opacity:1;stroke:#000000;stroke-width:0;stroke-miterlimit:4;stroke-opacity:1;stroke-dasharray:none;font-family:Arcon;-inkscape-font-specification:Arcon"
       x="-1409.5875"
       y="1830.5909"
       id="text3814-7-7"
       sodipodi:linespacing="125%"
       inkscape:export-filename="/home/avi/Desktop/Programming/Java/Android Application/AngelHackAppName/app/src/main/res/drawable/splashScreen.png"
       inkscape:export-xdpi="90"
       inkscape:export-ydpi="90"><tspan
         sodipodi:role="line"
         id="tspan3816-2-92"
         x="-1409.5875"
         y="1830.5909"
         style="font-size:144px;font-style:normal;font-variant:normal;font-weight:normal;font-stretch:normal;fill:#d2002c;fill-opacity:1;stroke:#000000;stroke-width:0;stroke-miterlimit:4;stroke-opacity:1;stroke-dasharray:none;font-family:Arcon;-inkscape-font-specification:Arcon">S A V V Y</tspan></text>
    <text
       xml:space="preserve"
       style="font-size:40px;font-style:normal;font-variant:normal;font-weight:normal;font-stretch:normal;line-height:125%;letter-spacing:0px;word-spacing:0px;fill:#d2002c;fill-opacity:1;stroke:none;font-family:Ubuntu;-inkscape-font-specification:Ubuntu"
       x="-1364.8878"
       y="997.69818"
       id="text3818-7-2"
       sodipodi:linespacing="125%"
       inkscape:export-filename="/home/avi/Desktop/Programming/Java/Android Application/AngelHackAppName/app/src/main/res/drawable/splashScreen.png"
       inkscape:export-xdpi="90"
       inkscape:export-ydpi="90"><tspan
         sodipodi:role="line"
         id="tspan3820-2-9"
         x="-1364.8878"
         y="997.69818"
         style="font-style:normal;font-variant:normal;font-weight:normal;font-stretch:normal;fill:#d2002c;fill-opacity:1;stroke:none;font-family:Arcon;-inkscape-font-specification:Arcon">How may I assist you?</tspan></text>
    <path
       sodipodi:type="arc"
       style="color:#000000;fill:none;stroke:#000000;stroke-width:2.87882757;stroke-linecap:butt;stroke-linejoin:miter;stroke-miterlimit:4;stroke-opacity:1;stroke-dasharray:17.27296594, 2.87882766;stroke-dashoffset:0;marker:none;visibility:visible;display:inline;overflow:visible;enable-background:accumulate"
       id="path3826-0-7"
       sodipodi:cx="277.28687"
       sodipodi:cy="634.15906"
       sodipodi:rx="87.378197"
       sodipodi:ry="92.934036"
       d="m 364.66506,634.15906 a 87.378197,92.934036 0 1 1 -174.75639,0 87.378197,92.934036 0 1 1 174.75639,0 z"
       transform="matrix(0.83532359,0,0,0.78538572,-1477.2426,-1.9838004)"
       inkscape:export-filename="/home/avi/Desktop/Programming/Java/Android Application/AngelHackAppName/app/src/main/res/drawable/splashScreen.png"
       inkscape:export-xdpi="90"
       inkscape:export-ydpi="90" />
    <path
       transform="matrix(1.0730192,0,0,1.0088712,-1542.1931,-143.77043)"
       d="m 364.66506,634.15906 a 87.378197,92.934036 0 1 1 -174.75639,0 87.378197,92.934036 0 1 1 174.75639,0 z"
       sodipodi:ry="92.934036"
       sodipodi:rx="87.378197"
       sodipodi:cy="634.15906"
       sodipodi:cx="277.28687"
       id="path3828-0-3"
       style="color:#000000;fill:none;stroke:#000000;stroke-width:2.87882757;stroke-linecap:butt;stroke-linejoin:miter;stroke-miterlimit:4;stroke-opacity:1;stroke-dasharray:17.27296594, 2.87882766;stroke-dashoffset:0;marker:none;visibility:visible;display:inline;overflow:visible;enable-background:accumulate"
       sodipodi:type="arc"
       inkscape:export-filename="/home/avi/Desktop/Programming/Java/Android Application/AngelHackAppName/app/src/main/res/drawable/splashScreen.png"
       inkscape:export-xdpi="90"
       inkscape:export-ydpi="90" />
    <path
       style="fill:#f7f7f7;fill-opacity:1;stroke:none"
       d="m -1190.2278,569.3731 10.7186,10.5401 21.2386,-22.4579 -9.7032,-11.2238 z"
       id="path3834-5-9"
       inkscape:connector-curvature="0"
       sodipodi:nodetypes="ccccc"
       inkscape:export-filename="/home/avi/Desktop/Programming/Java/Android Application/AngelHackAppName/app/src/main/res/drawable/splashScreen.png"
       inkscape:export-xdpi="90"
       inkscape:export-ydpi="90" />
    <text
       xml:space="preserve"
       style="font-size:128.52258301000000529px;font-style:normal;font-variant:normal;font-weight:normal;font-stretch:normal;line-height:125%;letter-spacing:0px;word-spacing:0px;fill:none;stroke:#d2002c;stroke-width:5.2;stroke-miterlimit:4;stroke-opacity:1;stroke-dasharray:none;font-family:Arcon;-inkscape-font-specification:Arcon"
       x="-1431.1926"
       y="953.8844"
       id="text3814-5-0"
       sodipodi:linespacing="125%"
       inkscape:export-filename="/home/avi/Desktop/Programming/Java/Android Application/AngelHackAppName/app/src/main/res/drawable/splash_screen.png"
       inkscape:export-xdpi="90"
       inkscape:export-ydpi="90"><tspan
         sodipodi:role="line"
         id="tspan3816-7-7"
         x="-1431.1926"
         y="953.8844"
         style="font-size:462.68130493000001024px;font-style:normal;font-variant:normal;font-weight:normal;font-stretch:normal;fill:none;stroke:#d2002c;stroke-width:5.2;stroke-miterlimit:4;stroke-opacity:1;stroke-dasharray:none;font-family:to whom it may concern type;-inkscape-font-specification:to whom it may concern type">savvy</tspan></text>
    <path
       style="fill:#ffffff;fill-opacity:1;stroke:#000000;stroke-width:0;stroke-linecap:butt;stroke-linejoin:miter;stroke-miterlimit:4;stroke-opacity:1;stroke-dasharray:none"
       d="m -2400.1965,510.07066 -149.2857,-60 c -27.7497,-1.5345 -43.7793,19.5132 -28.2143,47.5 l 167.3214,95 c 7.4216,2.7877 15.3754,3.7539 22.3214,1.7857 60.0236,-9.2409 121.2844,-20.7729 177.8572,-27.8571 l 11.6072,0.1786 50.7143,13.2142 c 57.3064,5.4554 87.4523,-60.9624 47.9551,-88.443 l -96.5129,-67.1497 c 0.1999,-0.1333 -27.6173,-9.6515 -35.6078,-8.8389 -6.0348,0.6137 -133.6457,-2.6926 -135.9672,-0.6044 -27.7271,8.3542 -28.1384,37.3274 -5.8981,52.8798 -1.8046,3.4347 59.3988,4.7332 89.0773,10.2294 1.5991,0.2961 0.8913,4.7966 0.8913,4.7966 l -91.04,24.37 c -12.4645,4.3613 -18.1714,3.0914 -25.2192,2.9388 z"
       id="path3772-1-3-0"
       inkscape:connector-curvature="0"
       sodipodi:nodetypes="ccccccccscsccsccc"
       inkscape:export-filename="/home/avi/Desktop/Programming/Java/Android Application/AngelHackAppName/app/src/main/res/drawable/splash_screen.png"
       inkscape:export-xdpi="90"
       inkscape:export-ydpi="90" />
    <path
       sodipodi:type="arc"
       style="color:#000000;fill:none;stroke:#f7f7f7;stroke-width:24.77137756;stroke-linecap:butt;stroke-linejoin:miter;stroke-miterlimit:4;stroke-opacity:1;stroke-dasharray:none;stroke-dashoffset:0;marker:none;visibility:visible;display:inline;overflow:visible;enable-background:accumulate"
       id="path3804-1-4-3"
       sodipodi:cx="203.21428"
       sodipodi:cy="448.79074"
       sodipodi:rx="83.214287"
       sodipodi:ry="116.42857"
       d="m 286.42857,448.79074 a 83.214287,116.42857 0 1 1 -166.42858,0 83.214287,116.42857 0 1 1 166.42858,0 z"
       transform="matrix(1.015154,0,0,0.72555484,-2586.1158,-64.305942)"
       inkscape:export-filename="/home/avi/Desktop/Programming/Java/Android Application/AngelHackAppName/app/src/main/res/drawable/splash_screen.png"
       inkscape:export-xdpi="90"
       inkscape:export-ydpi="90" />
    <path
       style="fill:#f7f7f7;fill-opacity:1;stroke:#000000;stroke-width:2.29999995;stroke-linecap:butt;stroke-linejoin:miter;stroke-miterlimit:4;stroke-opacity:1;stroke-dasharray:13.8, 2.3;stroke-dashoffset:0"
       d="m -2324.4264,335.47076 53.62,54.1295 c 12.853,9.5129 34.8726,-2.487 24.199,-24.0717 l -53.4926,-54.0021 c -6.5663,9.5239 -14.7035,17.4771 -24.3264,23.9443 z"
       id="path3806-8-4-4"
       inkscape:connector-curvature="0"
       sodipodi:nodetypes="ccccc"
       inkscape:export-filename="/home/avi/Desktop/Programming/Java/Android Application/AngelHackAppName/app/src/main/res/drawable/splash_screen.png"
       inkscape:export-xdpi="90"
       inkscape:export-ydpi="90" />
    <path
       style="fill:#d2002c;fill-opacity:1;stroke:none"
       d="m -2406.2942,214.31007 c -21.4977,4.8988 -33.2583,33.6211 -30.9805,33.8624 -5.8279,-8.4442 6.6727,-38.5572 30.9805,-33.8624 z"
       id="path3808-1-9-4"
       inkscape:connector-curvature="0"
       sodipodi:nodetypes="ccc"
       inkscape:export-filename="/home/avi/Desktop/Programming/Java/Android Application/AngelHackAppName/app/src/main/res/drawable/splash_screen.png"
       inkscape:export-xdpi="90"
       inkscape:export-ydpi="90" />
    <text
       xml:space="preserve"
       style="font-size:40px;font-style:normal;font-variant:normal;font-weight:normal;font-stretch:normal;line-height:125%;letter-spacing:0px;word-spacing:0px;fill:#ffffff;fill-opacity:1;stroke:none;font-family:Ubuntu;-inkscape-font-specification:Ubuntu"
       x="-2499.5139"
       y="762.46899"
       id="text3818-7-2-0"
       sodipodi:linespacing="125%"
       inkscape:export-filename="/home/avi/Desktop/Programming/Java/Android Application/AngelHackAppName/app/src/main/res/drawable/splash_screen.png"
       inkscape:export-xdpi="90"
       inkscape:export-ydpi="90"><tspan
         sodipodi:role="line"
         id="tspan3820-2-9-9"
         x="-2499.5139"
         y="762.46899"
         style="font-style:normal;font-variant:normal;font-weight:normal;font-stretch:normal;fill:#ffffff;fill-opacity:1;stroke:none;font-family:Arcon;-inkscape-font-specification:Arcon">How may I assist you?</tspan></text>
    <path
       sodipodi:type="arc"
       style="color:#000000;fill:#ffffff;stroke:#000000;stroke-width:2.87882756999999989;stroke-linecap:butt;stroke-linejoin:miter;stroke-miterlimit:4;stroke-opacity:1;stroke-dasharray:17.27296593999999885, 2.87882765999999979;stroke-dashoffset:0;marker:none;visibility:visible;display:inline;overflow:visible;enable-background:accumulate;fill-opacity:1"
       id="path3826-0-7-4"
       sodipodi:cx="277.28687"
       sodipodi:cy="634.15906"
       sodipodi:rx="87.378197"
       sodipodi:ry="92.934036"
       d="m 364.66506,634.15906 a 87.378197,92.934036 0 1 1 -174.75639,0 87.378197,92.934036 0 1 1 174.75639,0 z"
       transform="matrix(0.83532359,0,0,0.78538572,-2611.8688,-237.21304)"
       inkscape:export-filename="/home/avi/Desktop/Programming/Java/Android Application/AngelHackAppName/app/src/main/res/drawable/splash_screen.png"
       inkscape:export-xdpi="90"
       inkscape:export-ydpi="90" />
    <path
       transform="matrix(1.0730192,0,0,1.0088712,-2676.8193,-378.99967)"
       d="m 364.66506,634.15906 a 87.378197,92.934036 0 1 1 -174.75639,0 87.378197,92.934036 0 1 1 174.75639,0 z"
       sodipodi:ry="92.934036"
       sodipodi:rx="87.378197"
       sodipodi:cy="634.15906"
       sodipodi:cx="277.28687"
       id="path3828-0-3-2"
       style="color:#000000;fill:none;stroke:#000000;stroke-width:2.87882757;stroke-linecap:butt;stroke-linejoin:miter;stroke-miterlimit:4;stroke-opacity:1;stroke-dasharray:17.27296594, 2.87882766;stroke-dashoffset:0;marker:none;visibility:visible;display:inline;overflow:visible;enable-background:accumulate"
       sodipodi:type="arc"
       inkscape:export-filename="/home/avi/Desktop/Programming/Java/Android Application/AngelHackAppName/app/src/main/res/drawable/splash_screen.png"
       inkscape:export-xdpi="90"
       inkscape:export-ydpi="90" />
    <path
       style="fill:#f7f7f7;fill-opacity:1;stroke:none"
       d="m -2324.854,334.14386 10.7186,10.5401 21.2386,-22.4579 -9.7032,-11.2238 z"
       id="path3834-5-9-4"
       inkscape:connector-curvature="0"
       sodipodi:nodetypes="ccccc"
       inkscape:export-filename="/home/avi/Desktop/Programming/Java/Android Application/AngelHackAppName/app/src/main/res/drawable/splash_screen.png"
       inkscape:export-xdpi="90"
       inkscape:export-ydpi="90" />
    <text
       xml:space="preserve"
       style="font-size:128.52258301000000529px;font-style:normal;font-variant:normal;font-weight:normal;font-stretch:normal;line-height:125%;letter-spacing:0px;word-spacing:0px;fill:none;stroke:#ffffff;stroke-width:5.19999980999999956;stroke-miterlimit:4;stroke-opacity:1;stroke-dasharray:none;font-family:Arcon;-inkscape-font-specification:Arcon"
       x="-2565.8188"
       y="718.65521"
       id="text3814-5-0-7"
       sodipodi:linespacing="125%"
       inkscape:export-filename="/home/avi/Desktop/Programming/Java/Android Application/AngelHackAppName/app/src/main/res/drawable/splash_screen.png"
       inkscape:export-xdpi="90"
       inkscape:export-ydpi="90"><tspan
         sodipodi:role="line"
         id="tspan3816-7-7-2"
         x="-2565.8188"
         y="718.65521"
         style="font-size:462.68130493000001024px;font-style:normal;font-variant:normal;font-weight:normal;font-stretch:normal;fill:none;stroke:#ffffff;stroke-width:5.19999980999999956;stroke-miterlimit:4;stroke-opacity:1;stroke-dasharray:none;font-family:to whom it may concern type;-inkscape-font-specification:to whom it may concern type">savvy</tspan></text>
  </g>
</svg>
