<?xml version="1.0" encoding="UTF-8" standalone="no"?>
<!-- Created with Inkscape (http://www.inkscape.org/) -->

<svg
   xmlns:dc="http://purl.org/dc/elements/1.1/"
   xmlns:cc="http://creativecommons.org/ns#"
   xmlns:rdf="http://www.w3.org/1999/02/22-rdf-syntax-ns#"
   xmlns:svg="http://www.w3.org/2000/svg"
   xmlns="http://www.w3.org/2000/svg"
   xmlns:xlink="http://www.w3.org/1999/xlink"
   xmlns:sodipodi="http://sodipodi.sourceforge.net/DTD/sodipodi-0.dtd"
   xmlns:inkscape="http://www.inkscape.org/namespaces/inkscape"
   width="744.09448819"
   height="1052.3622047"
   id="svg2"
   version="1.1"
   inkscape:version="0.48.4 r9939"
   sodipodi:docname="suukutukutukuti.svg">
  <defs
     id="defs4">
    <linearGradient
       inkscape:collect="always"
       id="linearGradient3896">
      <stop
         style="stop-color:#031373;stop-opacity:1;"
         offset="0"
         id="stop3898" />
      <stop
         style="stop-color:#031373;stop-opacity:0;"
         offset="1"
         id="stop3900" />
    </linearGradient>
    <inkscape:perspective
       sodipodi:type="inkscape:persp3d"
       inkscape:vp_x="340.86405 : 412.89198 : 1"
       inkscape:vp_y="0 : 476.80763 : 0"
       inkscape:vp_z="695.65398 : 412.89198 : 1"
       inkscape:persp3d-origin="518.25902 : 329.26294 : 1"
       id="perspective2989" />
    <clipPath
       clipPathUnits="userSpaceOnUse"
       id="clipPath3067">
      <rect
         style="fill:#960000;fill-opacity:1;fill-rule:nonzero;stroke:#d40000;stroke-width:1.16079092;stroke-miterlimit:4;stroke-opacity:1;stroke-dasharray:none;stroke-dashoffset:0"
         id="rect3069"
         width="1346.0624"
         height="1313.7375"
         x="-1018.5034"
         y="296.49847" />
    </clipPath>
    <clipPath
       clipPathUnits="userSpaceOnUse"
       id="clipPath3820">
      <rect
         style="fill:#ff2a2a;fill-opacity:1;fill-rule:nonzero;stroke:#000000;stroke-width:5.25003433;stroke-miterlimit:4;stroke-opacity:1;stroke-dasharray:none;stroke-dashoffset:0"
         id="rect3822"
         width="634.98096"
         height="620.89294"
         x="190.21101"
         y="35.514221" />
    </clipPath>
    <clipPath
       clipPathUnits="userSpaceOnUse"
       id="clipPath3824">
      <rect
         style="fill:#ff2a2a;fill-opacity:1;fill-rule:nonzero;stroke:#000000;stroke-width:5.25003433;stroke-miterlimit:4;stroke-opacity:1;stroke-dasharray:none;stroke-dashoffset:0"
         id="rect3826"
         width="634.98096"
         height="620.89294"
         x="214.49673"
         y="50.657078" />
    </clipPath>
    <clipPath
       clipPathUnits="userSpaceOnUse"
       id="clipPath3828">
      <rect
         style="fill:#ff2a2a;fill-opacity:1;fill-rule:nonzero;stroke:#000000;stroke-width:5.25003433;stroke-miterlimit:4;stroke-opacity:1;stroke-dasharray:none;stroke-dashoffset:0"
         id="rect3830"
         width="634.98096"
         height="620.89294"
         x="206.78244"
         y="44.371365" />
    </clipPath>
    <clipPath
       clipPathUnits="userSpaceOnUse"
       id="clipPath3832">
      <rect
         style="fill:#ff2a2a;fill-opacity:1;fill-rule:nonzero;stroke:#000000;stroke-width:5.25003433;stroke-miterlimit:4;stroke-opacity:1;stroke-dasharray:none;stroke-dashoffset:0"
         id="rect3834"
         width="634.98096"
         height="620.89294"
         x="38.211018"
         y="11.514221"
         transform="matrix(0.99317065,0.11667073,-0.11667073,0.99317065,0,0)" />
    </clipPath>
    <clipPath
       clipPathUnits="userSpaceOnUse"
       id="clipPath3836">
      <rect
         style="fill:#ff2a2a;fill-opacity:1;fill-rule:nonzero;stroke:#000000;stroke-width:5.25003433;stroke-miterlimit:4;stroke-opacity:1;stroke-dasharray:none;stroke-dashoffset:0"
         id="rect3838"
         width="634.98096"
         height="620.89294"
         x="38.211018"
         y="11.514221" />
    </clipPath>
    <clipPath
       clipPathUnits="userSpaceOnUse"
       id="clipPath3840">
      <rect
         style="fill:#ff2a2a;fill-opacity:1;fill-rule:nonzero;stroke:#000000;stroke-width:5.25003433;stroke-miterlimit:4;stroke-opacity:1;stroke-dasharray:none;stroke-dashoffset:0"
         id="rect3842"
         width="634.98096"
         height="620.89294"
         x="38.211018"
         y="11.514221" />
    </clipPath>
    <clipPath
       clipPathUnits="userSpaceOnUse"
       id="clipPath3844">
      <rect
         style="fill:#ff2a2a;fill-opacity:1;fill-rule:nonzero;stroke:#000000;stroke-width:5.25003433;stroke-miterlimit:4;stroke-opacity:1;stroke-dasharray:none;stroke-dashoffset:0"
         id="rect3846"
         width="634.98096"
         height="620.89294"
         x="38.211018"
         y="11.514221" />
    </clipPath>
    <clipPath
       clipPathUnits="userSpaceOnUse"
       id="clipPath3848">
      <rect
         style="fill:#ff2a2a;fill-opacity:1;fill-rule:nonzero;stroke:#000000;stroke-width:5.25003433;stroke-miterlimit:4;stroke-opacity:1;stroke-dasharray:none;stroke-dashoffset:0"
         id="rect3850"
         width="634.98096"
         height="620.89294"
         x="38.211018"
         y="11.514221" />
    </clipPath>
    <clipPath
       clipPathUnits="userSpaceOnUse"
       id="clipPath3852">
      <rect
         style="fill:#ff2a2a;fill-opacity:1;fill-rule:nonzero;stroke:#000000;stroke-width:5.25003433;stroke-miterlimit:4;stroke-opacity:1;stroke-dasharray:none;stroke-dashoffset:0"
         id="rect3854"
         width="634.98096"
         height="620.89294"
         x="38.211018"
         y="11.514221" />
    </clipPath>
    <clipPath
       clipPathUnits="userSpaceOnUse"
       id="clipPath3856">
      <rect
         style="fill:#ff2a2a;fill-opacity:1;fill-rule:nonzero;stroke:#000000;stroke-width:5.25003433;stroke-miterlimit:4;stroke-opacity:1;stroke-dasharray:none;stroke-dashoffset:0"
         id="rect3858"
         width="634.98096"
         height="620.89294"
         x="38.211018"
         y="11.514221" />
    </clipPath>
    <clipPath
       clipPathUnits="userSpaceOnUse"
       id="clipPath3860">
      <rect
         style="fill:#ff2a2a;fill-opacity:1;fill-rule:nonzero;stroke:#000000;stroke-width:5.25003433;stroke-miterlimit:4;stroke-opacity:1;stroke-dasharray:none;stroke-dashoffset:0"
         id="rect3862"
         width="634.98096"
         height="620.89294"
         x="38.211018"
         y="11.514221" />
    </clipPath>
    <clipPath
       clipPathUnits="userSpaceOnUse"
       id="clipPath3864">
      <rect
         style="fill:#ff2a2a;fill-opacity:1;fill-rule:nonzero;stroke:#000000;stroke-width:5.25003433;stroke-miterlimit:4;stroke-opacity:1;stroke-dasharray:none;stroke-dashoffset:0"
         id="rect3866"
         width="634.98096"
         height="620.89294"
         x="38.211018"
         y="11.514221" />
    </clipPath>
    <clipPath
       clipPathUnits="userSpaceOnUse"
       id="clipPath3868">
      <rect
         style="fill:#ff2a2a;fill-opacity:1;fill-rule:nonzero;stroke:#000000;stroke-width:5.25003433;stroke-miterlimit:4;stroke-opacity:1;stroke-dasharray:none;stroke-dashoffset:0"
         id="rect3870"
         width="634.98096"
         height="620.89294"
         x="38.211018"
         y="11.514221" />
    </clipPath>
    <clipPath
       clipPathUnits="userSpaceOnUse"
       id="clipPath3872">
      <rect
         style="fill:#ff2a2a;fill-opacity:1;fill-rule:nonzero;stroke:#000000;stroke-width:5.25003433;stroke-miterlimit:4;stroke-opacity:1;stroke-dasharray:none;stroke-dashoffset:0"
         id="rect3874"
         width="634.98096"
         height="620.89294"
         x="38.211018"
         y="11.514221" />
    </clipPath>
    <clipPath
       clipPathUnits="userSpaceOnUse"
       id="clipPath3876">
      <rect
         style="fill:#ff2a2a;fill-opacity:1;fill-rule:nonzero;stroke:#000000;stroke-width:5.25003433;stroke-miterlimit:4;stroke-opacity:1;stroke-dasharray:none;stroke-dashoffset:0"
         id="rect3878"
         width="634.98096"
         height="620.89294"
         x="38.211018"
         y="11.514221" />
    </clipPath>
    <clipPath
       clipPathUnits="userSpaceOnUse"
       id="clipPath3880">
      <rect
         style="fill:#ff2a2a;fill-opacity:1;fill-rule:nonzero;stroke:#000000;stroke-width:5.25003433;stroke-miterlimit:4;stroke-opacity:1;stroke-dasharray:none;stroke-dashoffset:0"
         id="rect3882"
         width="634.98096"
         height="620.89294"
         x="38.211018"
         y="11.514221" />
    </clipPath>
    <clipPath
       clipPathUnits="userSpaceOnUse"
       id="clipPath3884">
      <rect
         style="fill:#ff2a2a;fill-opacity:1;fill-rule:nonzero;stroke:#000000;stroke-width:5.25003433;stroke-miterlimit:4;stroke-opacity:1;stroke-dasharray:none;stroke-dashoffset:0"
         id="rect3886"
         width="634.98096"
         height="620.89294"
         x="38.211018"
         y="11.514221" />
    </clipPath>
    <clipPath
       clipPathUnits="userSpaceOnUse"
       id="clipPath3888">
      <rect
         style="fill:#ff2a2a;fill-opacity:1;fill-rule:nonzero;stroke:#000000;stroke-width:5.25003433;stroke-miterlimit:4;stroke-opacity:1;stroke-dasharray:none;stroke-dashoffset:0"
         id="rect3890"
         width="634.98096"
         height="620.89294"
         x="38.211018"
         y="11.514221" />
    </clipPath>
    <clipPath
       clipPathUnits="userSpaceOnUse"
       id="clipPath3892">
      <rect
         style="fill:#ff2a2a;fill-opacity:1;fill-rule:nonzero;stroke:#000000;stroke-width:5.25003433;stroke-miterlimit:4;stroke-opacity:1;stroke-dasharray:none;stroke-dashoffset:0"
         id="rect3894"
         width="634.98096"
         height="620.89294"
         x="38.211018"
         y="11.514221" />
    </clipPath>
    <linearGradient
       inkscape:collect="always"
       xlink:href="#linearGradient3896"
       id="linearGradient3902"
       x1="38.211018"
       y1="321.96069"
       x2="673.19197"
       y2="321.96069"
       gradientUnits="userSpaceOnUse" />
    <clipPath
       clipPathUnits="userSpaceOnUse"
       id="clipPath3836-5">
      <rect
         style="fill:#ff2a2a;fill-opacity:1;fill-rule:nonzero;stroke:#000000;stroke-width:5.25003433;stroke-miterlimit:4;stroke-opacity:1;stroke-dasharray:none;stroke-dashoffset:0"
         id="rect3838-2"
         width="634.98096"
         height="620.89294"
         x="38.211018"
         y="11.514221" />
    </clipPath>
    <clipPath
       clipPathUnits="userSpaceOnUse"
       id="clipPath3828-3">
      <rect
         style="fill:#ff2a2a;fill-opacity:1;fill-rule:nonzero;stroke:#000000;stroke-width:5.25003433;stroke-miterlimit:4;stroke-opacity:1;stroke-dasharray:none;stroke-dashoffset:0"
         id="rect3830-3"
         width="634.98096"
         height="620.89294"
         x="206.78244"
         y="44.371365" />
    </clipPath>
    <clipPath
       clipPathUnits="userSpaceOnUse"
       id="clipPath3824-8">
      <rect
         style="fill:#ff2a2a;fill-opacity:1;fill-rule:nonzero;stroke:#000000;stroke-width:5.25003433;stroke-miterlimit:4;stroke-opacity:1;stroke-dasharray:none;stroke-dashoffset:0"
         id="rect3826-9"
         width="634.98096"
         height="620.89294"
         x="214.49673"
         y="50.657078" />
    </clipPath>
    <clipPath
       clipPathUnits="userSpaceOnUse"
       id="clipPath3820-1">
      <rect
         style="fill:#ff2a2a;fill-opacity:1;fill-rule:nonzero;stroke:#000000;stroke-width:5.25003433;stroke-miterlimit:4;stroke-opacity:1;stroke-dasharray:none;stroke-dashoffset:0"
         id="rect3822-3"
         width="634.98096"
         height="620.89294"
         x="190.21101"
         y="35.514221" />
    </clipPath>
    <clipPath
       clipPathUnits="userSpaceOnUse"
       id="clipPath3836-5-5">
      <rect
         style="fill:#ff2a2a;fill-opacity:1;fill-rule:nonzero;stroke:#000000;stroke-width:5.25003433;stroke-miterlimit:4;stroke-opacity:1;stroke-dasharray:none;stroke-dashoffset:0"
         id="rect3838-2-6"
         width="634.98096"
         height="620.89294"
         x="38.211018"
         y="11.514221" />
    </clipPath>
    <clipPath
       clipPathUnits="userSpaceOnUse"
       id="clipPath3820-1-3">
      <rect
         style="fill:#ff2a2a;fill-opacity:1;fill-rule:nonzero;stroke:#000000;stroke-width:5.25003433;stroke-miterlimit:4;stroke-opacity:1;stroke-dasharray:none;stroke-dashoffset:0"
         id="rect3822-3-3"
         width="634.98096"
         height="620.89294"
         x="190.21101"
         y="35.514221" />
    </clipPath>
    <clipPath
       clipPathUnits="userSpaceOnUse"
       id="clipPath3824-8-3">
      <rect
         style="fill:#ff2a2a;fill-opacity:1;fill-rule:nonzero;stroke:#000000;stroke-width:5.25003433;stroke-miterlimit:4;stroke-opacity:1;stroke-dasharray:none;stroke-dashoffset:0"
         id="rect3826-9-6"
         width="634.98096"
         height="620.89294"
         x="214.49673"
         y="50.657078" />
    </clipPath>
    <clipPath
       clipPathUnits="userSpaceOnUse"
       id="clipPath3828-3-4">
      <rect
         style="fill:#ff2a2a;fill-opacity:1;fill-rule:nonzero;stroke:#000000;stroke-width:5.25003433;stroke-miterlimit:4;stroke-opacity:1;stroke-dasharray:none;stroke-dashoffset:0"
         id="rect3830-3-1"
         width="634.98096"
         height="620.89294"
         x="206.78244"
         y="44.371365" />
    </clipPath>
    <clipPath
       clipPathUnits="userSpaceOnUse"
       id="clipPath3836-0">
      <rect
         style="fill:#ff2a2a;fill-opacity:1;fill-rule:nonzero;stroke:#000000;stroke-width:5.25003433;stroke-miterlimit:4;stroke-opacity:1;stroke-dasharray:none;stroke-dashoffset:0"
         id="rect3838-8"
         width="634.98096"
         height="620.89294"
         x="38.211018"
         y="11.514221" />
    </clipPath>
    <clipPath
       clipPathUnits="userSpaceOnUse"
       id="clipPath3820-1-3-7">
      <rect
         style="fill:#ff2a2a;fill-opacity:1;fill-rule:nonzero;stroke:#000000;stroke-width:5.25003433;stroke-miterlimit:4;stroke-opacity:1;stroke-dasharray:none;stroke-dashoffset:0"
         id="rect3822-3-3-2"
         width="634.98096"
         height="620.89294"
         x="190.21101"
         y="35.514221" />
    </clipPath>
    <clipPath
       clipPathUnits="userSpaceOnUse"
       id="clipPath3824-8-3-9">
      <rect
         style="fill:#ff2a2a;fill-opacity:1;fill-rule:nonzero;stroke:#000000;stroke-width:5.25003433;stroke-miterlimit:4;stroke-opacity:1;stroke-dasharray:none;stroke-dashoffset:0"
         id="rect3826-9-6-9"
         width="634.98096"
         height="620.89294"
         x="214.49673"
         y="50.657078" />
    </clipPath>
    <clipPath
       clipPathUnits="userSpaceOnUse"
       id="clipPath3828-3-4-9">
      <rect
         style="fill:#ff2a2a;fill-opacity:1;fill-rule:nonzero;stroke:#000000;stroke-width:5.25003433;stroke-miterlimit:4;stroke-opacity:1;stroke-dasharray:none;stroke-dashoffset:0"
         id="rect3830-3-1-3"
         width="634.98096"
         height="620.89294"
         x="206.78244"
         y="44.371365" />
    </clipPath>
    <clipPath
       clipPathUnits="userSpaceOnUse"
       id="clipPath3820-1-3-7-2">
      <rect
         style="fill:#ff2a2a;fill-opacity:1;fill-rule:nonzero;stroke:#000000;stroke-width:5.25003433;stroke-miterlimit:4;stroke-opacity:1;stroke-dasharray:none;stroke-dashoffset:0"
         id="rect3822-3-3-2-0"
         width="634.98096"
         height="620.89294"
         x="190.21101"
         y="35.514221" />
    </clipPath>
    <clipPath
       clipPathUnits="userSpaceOnUse"
       id="clipPath3824-8-3-9-8">
      <rect
         style="fill:#ff2a2a;fill-opacity:1;fill-rule:nonzero;stroke:#000000;stroke-width:5.25003433;stroke-miterlimit:4;stroke-opacity:1;stroke-dasharray:none;stroke-dashoffset:0"
         id="rect3826-9-6-9-4"
         width="634.98096"
         height="620.89294"
         x="214.49673"
         y="50.657078" />
    </clipPath>
    <clipPath
       clipPathUnits="userSpaceOnUse"
       id="clipPath3828-3-4-9-3">
      <rect
         style="fill:#ff2a2a;fill-opacity:1;fill-rule:nonzero;stroke:#000000;stroke-width:5.25003433;stroke-miterlimit:4;stroke-opacity:1;stroke-dasharray:none;stroke-dashoffset:0"
         id="rect3830-3-1-3-2"
         width="634.98096"
         height="620.89294"
         x="206.78244"
         y="44.371365" />
    </clipPath>
    <clipPath
       clipPathUnits="userSpaceOnUse"
       id="clipPath3836-0-2">
      <rect
         style="fill:#ff2a2a;fill-opacity:1;fill-rule:nonzero;stroke:#000000;stroke-width:5.25003433;stroke-miterlimit:4;stroke-opacity:1;stroke-dasharray:none;stroke-dashoffset:0"
         id="rect3838-8-1"
         width="634.98096"
         height="620.89294"
         x="38.211018"
         y="11.514221" />
    </clipPath>
    <clipPath
       clipPathUnits="userSpaceOnUse"
       id="clipPath3836-0-2-7">
      <rect
         style="fill:#ff2a2a;fill-opacity:1;fill-rule:nonzero;stroke:#000000;stroke-width:5.25003433;stroke-miterlimit:4;stroke-opacity:1;stroke-dasharray:none;stroke-dashoffset:0"
         id="rect3838-8-1-2"
         width="634.98096"
         height="620.89294"
         x="38.211018"
         y="11.514221" />
    </clipPath>
    <clipPath
       clipPathUnits="userSpaceOnUse"
       id="clipPath3820-1-3-7-2-4">
      <rect
         style="fill:#ff2a2a;fill-opacity:1;fill-rule:nonzero;stroke:#000000;stroke-width:5.25003433;stroke-miterlimit:4;stroke-opacity:1;stroke-dasharray:none;stroke-dashoffset:0"
         id="rect3822-3-3-2-0-6"
         width="634.98096"
         height="620.89294"
         x="190.21101"
         y="35.514221" />
    </clipPath>
    <clipPath
       clipPathUnits="userSpaceOnUse"
       id="clipPath3824-8-3-9-8-4">
      <rect
         style="fill:#ff2a2a;fill-opacity:1;fill-rule:nonzero;stroke:#000000;stroke-width:5.25003433;stroke-miterlimit:4;stroke-opacity:1;stroke-dasharray:none;stroke-dashoffset:0"
         id="rect3826-9-6-9-4-5"
         width="634.98096"
         height="620.89294"
         x="214.49673"
         y="50.657078" />
    </clipPath>
    <clipPath
       clipPathUnits="userSpaceOnUse"
       id="clipPath3828-3-4-9-3-7">
      <rect
         style="fill:#ff2a2a;fill-opacity:1;fill-rule:nonzero;stroke:#000000;stroke-width:5.25003433;stroke-miterlimit:4;stroke-opacity:1;stroke-dasharray:none;stroke-dashoffset:0"
         id="rect3830-3-1-3-2-3"
         width="634.98096"
         height="620.89294"
         x="206.78244"
         y="44.371365" />
    </clipPath>
  </defs>
  <sodipodi:namedview
     id="base"
     pagecolor="#ffffff"
     bordercolor="#666666"
     borderopacity="1.0"
     inkscape:pageopacity="0.0"
     inkscape:pageshadow="2"
     inkscape:zoom="0.7"
     inkscape:cx="548.69907"
     inkscape:cy="700.10928"
     inkscape:document-units="px"
     inkscape:current-layer="layer1"
     showgrid="false"
     inkscape:window-width="1366"
     inkscape:window-height="744"
     inkscape:window-x="0"
     inkscape:window-y="24"
     inkscape:window-maximized="1"
     showguides="true"
     inkscape:guide-bbox="true" />
  <metadata
     id="metadata7">
    <rdf:RDF>
      <cc:Work
         rdf:about="">
        <dc:format>image/svg+xml</dc:format>
        <dc:type
           rdf:resource="http://purl.org/dc/dcmitype/StillImage" />
        <dc:title />
      </cc:Work>
    </rdf:RDF>
  </metadata>
  <g
     inkscape:label="Layer 1"
     inkscape:groupmode="layer"
     id="layer1">
    <text
       xml:space="preserve"
       style="font-size:40px;font-style:normal;font-weight:normal;line-height:125%;letter-spacing:0px;word-spacing:0px;fill:#000000;fill-opacity:1;stroke:none;font-family:Sans"
       x="218.57143"
       y="513.79077"
       id="text2985"
       sodipodi:linespacing="125%"
       clip-path="url(#clipPath3892)"><tspan
         sodipodi:role="line"
         id="tspan2987"
         x="218.57143"
         y="513.79077" /></text>
    <rect
       style="fill:#02155b;fill-opacity:1;fill-rule:nonzero;stroke:none"
       id="rect3839"
       width="640.23114"
       height="626.14301"
       x="35.586292"
       y="8.888752"
       clip-path="url(#clipPath3888)" />
    <path
       inkscape:connector-curvature="0"
       id="path3798"
       style="fill:#e9e9ff;fill-opacity:1;fill-rule:evenodd;stroke:none"
       d="m 151.3589,1153.4617 525.2793,-1918.36267 0,2455.76377 -525.2793,-18.1497 z"
       clip-path="url(#clipPath3884)"
       transform="translate(-754.28572,-181.42857)" />
    <path
       inkscape:connector-curvature="0"
       id="path3800"
       style="fill:#d7d7ff;fill-opacity:1;fill-rule:evenodd;stroke:none"
       d="m -23.238119,2872.9565 0,-1471.7611 -124.695061,36.8103 0,-2455.7638 z"
       clip-path="url(#clipPath3880)" />
    <path
       inkscape:connector-curvature="0"
       id="path3804"
       style="fill:#00004b;fill-opacity:1;fill-rule:nonzero;stroke:none"
       d="m 34.498395,8.812494 0,1191.630906 781.146215,-6.3017 0,-519.2514 z"
       clip-path="url(#clipPath3876)"
       inkscape:export-filename="/home/avi/Desktop/Designs/Sookitty.png"
       inkscape:export-xdpi="90"
       inkscape:export-ydpi="90" />
    <path
       inkscape:connector-curvature="0"
       id="path3802"
       style="fill:url(#linearGradient3902);fill-opacity:1;fill-rule:nonzero;stroke:none"
       d="M -704.35873,245.95536 726.76189,2884.3852 602.06683,-1006.3295 76.787481,912.03318 z"
       clip-path="url(#clipPath3872)"
       transform="translate(20,1.4285714)" />
    <text
       xml:space="preserve"
       style="font-size:40px;font-style:normal;font-weight:normal;line-height:125%;letter-spacing:0px;word-spacing:0px;fill:#ffffff;fill-opacity:0.05022831;stroke:none;font-family:Sans"
       x="40.2855"
       y="71.054085"
       id="text3901-2"
       sodipodi:linespacing="125%"
       clip-path="url(#clipPath3844)"
       transform="matrix(11.332219,0,0,24.067393,-413.73238,-1116.6277)"><tspan
         sodipodi:role="line"
         id="tspan3903-1"
         x="40.2855"
         y="71.054085"
         style="font-size:32px;font-weight:bold;fill:#ffffff;-inkscape-font-specification:Sans Bold;fill-opacity:0.05022831">NO</tspan></text>
    <path
       inkscape:connector-curvature="0"
       id="path3806"
       style="fill:#9c1350;fill-opacity:1;fill-rule:nonzero;stroke:#d40000;stroke-width:1.70000005;stroke-miterlimit:4;stroke-opacity:1;stroke-dasharray:none;stroke-dashoffset:0"
       d="m -1015.5016,1630.4434 1431.12063,-24.9623 -124.69506,36.8103 -525.27935,-18.1497 z"
       clip-path="url(#clipPath3868)" />
    <path
       inkscape:connector-curvature="0"
       id="path3808"
       style="fill:#8686bf;fill-opacity:1;fill-rule:evenodd;stroke:none"
       d="m -1781.2159,-729.75894 1431.12064,2638.42974 0,-1471.76113 -1431.12064,24.9623 z"
       clip-path="url(#clipPath3864)" />
    <text
       xml:space="preserve"
       style="font-size:40px;font-style:normal;font-weight:normal;line-height:125%;letter-spacing:0px;word-spacing:0px;fill:#ffff00;fill-opacity:1;stroke:#eaff00;stroke-width:0;stroke-miterlimit:4;stroke-opacity:1;stroke-dasharray:none;font-family:Sans"
       x="75.567146"
       y="551.86377"
       id="text3841"
       sodipodi:linespacing="125%"
       clip-path="url(#clipPath3860)"><tspan
         sodipodi:role="line"
         id="tspan3843"
         x="75.567146"
         y="551.86377"
         style="font-size:100px;font-style:normal;font-variant:normal;font-weight:normal;font-stretch:normal;fill:#ffff00;fill-opacity:1;stroke:#eaff00;stroke-width:0;stroke-miterlimit:4;stroke-opacity:1;stroke-dasharray:none;font-family:Droid Sans;-inkscape-font-specification:Droid Sans">S.o.o.k.i.t.t.y?</tspan></text>
    <text
       xml:space="preserve"
       style="font-size:40px;font-style:normal;font-weight:normal;line-height:125%;letter-spacing:0px;word-spacing:0px;fill:#000000;fill-opacity:1;stroke:none;font-family:Sans"
       x="135.71429"
       y="548.07648"
       id="text3864"
       sodipodi:linespacing="125%"
       clip-path="url(#clipPath3856)"><tspan
         sodipodi:role="line"
         id="tspan3866" /></text>
    <text
       xml:space="preserve"
       style="font-size:40px;font-style:normal;font-weight:normal;line-height:125%;letter-spacing:0px;word-spacing:0px;fill:#ffff00;fill-opacity:1;stroke:#eaff00;stroke-width:0;stroke-miterlimit:4;stroke-opacity:1;stroke-dasharray:none;font-family:Sans"
       x="209.18246"
       y="577.66656"
       id="text3841-6"
       sodipodi:linespacing="125%"
       clip-path="url(#clipPath3852)"><tspan
         sodipodi:role="line"
         id="tspan3843-8"
         x="209.18246"
         y="577.66656"
         style="font-size:24px;font-style:normal;font-variant:normal;font-weight:normal;font-stretch:normal;fill:#ffff00;fill-opacity:1;stroke:#eaff00;stroke-width:0;stroke-miterlimit:4;stroke-opacity:1;stroke-dasharray:none;font-family:Droid Sans;-inkscape-font-specification:Droid Sans">Sookitty sookitty sookitty sookitty</tspan></text>
    <path
       style="fill:#ffffff;fill-opacity:1;stroke:#000000;stroke-width:1.5;stroke-linecap:butt;stroke-linejoin:miter;stroke-miterlimit:4;stroke-opacity:1;stroke-dasharray:none"
       d="m 137.60587,285.18958 c 23.08864,-16.97123 41.75054,-10.79484 59.11856,1.37165 14.65735,-4.26226 35.49138,-4.51373 43.27557,10.08666 19.54387,-9.92673 29.65703,-4.57298 38.57142,5.71429 16.81818,-8.32418 36.60411,3.77847 39.66824,14.37237 10.307,5.63609 27.70872,10.81395 18.90319,31.34191 12.43426,24.19565 2.94786,38.90167 -12.35206,42.17876 -6.97695,27.22074 -18.60437,27.30433 -53.36222,27.82124 -8.87146,18.69485 -42.09563,19.1294 -65.71429,0 -50.44124,22.0194 -82.92971,-18.24415 -74.28571,-25.71428 -5.75456,8.31215 -58.626276,-5.15212 -44.285716,-45.71429 -17.77577,-22.02231 -9.74078,-24.68654 -7.14285,-31.42857 0.65366,-11.69391 13.32675,-30.40331 23.377076,-27.33103 2.02003,-7.38851 21.5436,-16.64052 34.22879,-2.69871 z"
       id="path3012"
       inkscape:connector-curvature="0"
       sodipodi:nodetypes="cccccccccccccc"
       clip-path="url(#clipPath3836)" />
    <text
       xml:space="preserve"
       style="font-size:40px;font-style:normal;font-weight:normal;line-height:125%;letter-spacing:0px;word-spacing:0px;fill:#000000;fill-opacity:1;stroke:#ffff00;stroke-width:1;stroke-opacity:0;font-family:Sans"
       x="66.158142"
       y="377.63147"
       id="text3901"
       sodipodi:linespacing="125%"
       transform="matrix(0.99317065,-0.11667073,0.11667073,0.99317065,0,0)"
       clip-path="url(#clipPath3832)"><tspan
         sodipodi:role="line"
         id="tspan3903"
         x="66.158142"
         y="377.63147"
         style="font-size:20px;fill:#000000;fill-opacity:1;stroke:#ffff00;stroke-width:1;stroke-opacity:0">Wutizwrongwithyou?</tspan></text>
    <path
       sodipodi:type="arc"
       style="color:#000000;fill:#ffffff;fill-opacity:1;fill-rule:nonzero;stroke:#000000;stroke-width:1.5;stroke-linecap:butt;stroke-linejoin:miter;stroke-miterlimit:4;stroke-opacity:1;stroke-dasharray:none;stroke-dashoffset:0;marker:none;visibility:visible;display:inline;overflow:visible;enable-background:accumulate"
       id="path3782"
       sodipodi:cx="284.28571"
       sodipodi:cy="444.50504"
       sodipodi:rx="12.857142"
       sodipodi:ry="13.571428"
       d="m 297.14285,444.50504 a 12.857142,13.571428 0 1 1 -25.71429,0 12.857142,13.571428 0 1 1 25.71429,0 z"
       transform="translate(-168.57143,-32.857142)"
       clip-path="url(#clipPath3828)" />
    <path
       sodipodi:type="arc"
       style="color:#000000;fill:#ffffff;fill-opacity:1;fill-rule:nonzero;stroke:#000000;stroke-width:1.5;stroke-linecap:butt;stroke-linejoin:miter;stroke-miterlimit:4;stroke-opacity:1;stroke-dasharray:none;stroke-dashoffset:0;marker:none;visibility:visible;display:inline;overflow:visible;enable-background:accumulate"
       id="path3784"
       sodipodi:cx="300"
       sodipodi:cy="481.64789"
       sodipodi:rx="11.428572"
       sodipodi:ry="12.142858"
       d="m 311.42857,481.64789 a 11.428572,12.142858 0 1 1 -22.85714,0 11.428572,12.142858 0 1 1 22.85714,0 z"
       transform="translate(-176.28572,-39.142857)"
       clip-path="url(#clipPath3824)" />
    <path
       sodipodi:type="arc"
       style="color:#000000;fill:#ffffff;fill-opacity:1;fill-rule:nonzero;stroke:#000000;stroke-width:1.5;stroke-linecap:butt;stroke-linejoin:miter;stroke-miterlimit:4;stroke-opacity:1;stroke-dasharray:none;stroke-dashoffset:0;marker:none;visibility:visible;display:inline;overflow:visible;enable-background:accumulate"
       id="path3786"
       sodipodi:cx="293.21429"
       sodipodi:cy="483.43362"
       sodipodi:rx="8.2142859"
       sodipodi:ry="8.2142859"
       d="m 301.42858,483.43362 a 8.2142859,8.2142859 0 1 1 -16.42857,0 8.2142859,8.2142859 0 1 1 16.42857,0 z"
       transform="translate(-152,-24)"
       clip-path="url(#clipPath3820)" />
    <path
       transform="translate(283.45649,-208.29612)"
       style="fill:#ffffff;fill-opacity:1;stroke:#000000;stroke-width:1.5;stroke-linecap:butt;stroke-linejoin:miter;stroke-miterlimit:4;stroke-opacity:1;stroke-dasharray:none"
       d="m 137.60587,285.18958 c 23.08864,-16.97123 41.75054,-10.79484 59.11856,1.37165 14.65735,-4.26226 35.49138,-4.51373 43.27557,10.08666 19.54387,-9.92673 29.65703,-4.57298 38.57142,5.71429 16.81818,-8.32418 36.60411,3.77847 39.66824,14.37237 10.307,5.63609 27.70872,10.81395 18.90319,31.34191 12.43426,24.19565 2.94786,38.90167 -12.35206,42.17876 -6.97695,27.22074 -18.60437,27.30433 -53.36222,27.82124 -8.87146,18.69485 -42.09563,19.1294 -65.71429,0 -50.44124,22.0194 -82.92971,-18.24415 -74.28571,-25.71428 -5.75456,8.31215 -58.626276,-5.15212 -44.285716,-45.71429 -17.77577,-22.02231 -9.74078,-24.68654 -7.14285,-31.42857 0.65366,-11.69391 13.32675,-30.40331 23.377076,-27.33103 2.02003,-7.38851 21.5436,-16.64052 34.22879,-2.69871 z"
       id="path3012-2"
       inkscape:connector-curvature="0"
       sodipodi:nodetypes="cccccccccccccc"
       clip-path="url(#clipPath3836-5)" />
    <text
       xml:space="preserve"
       style="font-size:40px;font-style:normal;font-weight:normal;line-height:125%;letter-spacing:0px;word-spacing:0px;fill:#000000;fill-opacity:1;stroke:none;font-family:Sans"
       x="429.11734"
       y="63.114494"
       id="text3955"
       sodipodi:linespacing="125%"
       transform="matrix(0.98480775,0.17364817,-0.17364817,0.98480775,0,0)"><tspan
         sodipodi:role="line"
         id="tspan3957"
         x="429.11734"
         y="63.114494"
         style="font-size:20px">Wutareyoudoing</tspan></text>
    <path
       sodipodi:type="arc"
       style="color:#000000;fill:#ffffff;fill-opacity:1;fill-rule:nonzero;stroke:#000000;stroke-width:1.5;stroke-linecap:butt;stroke-linejoin:miter;stroke-miterlimit:4;stroke-opacity:1;stroke-dasharray:none;stroke-dashoffset:0;marker:none;visibility:visible;display:inline;overflow:visible;enable-background:accumulate"
       id="path3782-9"
       sodipodi:cx="284.28571"
       sodipodi:cy="444.50504"
       sodipodi:rx="12.857142"
       sodipodi:ry="13.571428"
       d="m 297.14285,444.50504 a 12.857142,13.571428 0 1 1 -25.71429,0 12.857142,13.571428 0 1 1 25.71429,0 z"
       transform="translate(281.42858,-219.28571)"
       clip-path="url(#clipPath3828-3)" />
    <path
       sodipodi:type="arc"
       style="color:#000000;fill:#ffffff;fill-opacity:1;fill-rule:nonzero;stroke:#000000;stroke-width:1.5;stroke-linecap:butt;stroke-linejoin:miter;stroke-miterlimit:4;stroke-opacity:1;stroke-dasharray:none;stroke-dashoffset:0;marker:none;visibility:visible;display:inline;overflow:visible;enable-background:accumulate"
       id="path3784-1"
       sodipodi:cx="300"
       sodipodi:cy="481.64789"
       sodipodi:rx="11.428572"
       sodipodi:ry="12.142858"
       d="m 311.42857,481.64789 a 11.428572,12.142858 0 1 1 -22.85714,0 11.428572,12.142858 0 1 1 22.85714,0 z"
       transform="translate(255.71429,-230.71428)"
       clip-path="url(#clipPath3824-8)" />
    <path
       sodipodi:type="arc"
       style="color:#000000;fill:#ffffff;fill-opacity:1;fill-rule:nonzero;stroke:#000000;stroke-width:1.5;stroke-linecap:butt;stroke-linejoin:miter;stroke-miterlimit:4;stroke-opacity:1;stroke-dasharray:none;stroke-dashoffset:0;marker:none;visibility:visible;display:inline;overflow:visible;enable-background:accumulate"
       id="path3786-8"
       sodipodi:cx="293.21429"
       sodipodi:cy="483.43362"
       sodipodi:rx="8.2142859"
       sodipodi:ry="8.2142859"
       d="m 301.42858,483.43362 a 8.2142859,8.2142859 0 1 1 -16.42857,0 8.2142859,8.2142859 0 1 1 16.42857,0 z"
       transform="translate(242.49999,-223.92858)"
       clip-path="url(#clipPath3820-1)" />
    <path
       transform="matrix(0.50581259,0,0,0.50581259,350.60835,162.83534)"
       style="fill:#ffffff;fill-opacity:1;stroke:#000000;stroke-width:1.5;stroke-linecap:butt;stroke-linejoin:miter;stroke-miterlimit:4;stroke-opacity:1;stroke-dasharray:none"
       d="m 137.60587,285.18958 c 23.08864,-16.97123 41.75054,-10.79484 59.11856,1.37165 14.65735,-4.26226 35.49138,-4.51373 43.27557,10.08666 19.54387,-9.92673 29.65703,-4.57298 38.57142,5.71429 16.81818,-8.32418 36.60411,3.77847 39.66824,14.37237 10.307,5.63609 27.70872,10.81395 18.90319,31.34191 12.43426,24.19565 2.94786,38.90167 -12.35206,42.17876 -6.97695,27.22074 -18.60437,27.30433 -53.36222,27.82124 -8.87146,18.69485 -42.09563,19.1294 -65.71429,0 -50.44124,22.0194 -82.92971,-18.24415 -74.28571,-25.71428 -5.75456,8.31215 -58.626276,-5.15212 -44.285716,-45.71429 -17.77577,-22.02231 -9.74078,-24.68654 -7.14285,-31.42857 0.65366,-11.69391 13.32675,-30.40331 23.377076,-27.33103 2.02003,-7.38851 21.5436,-16.64052 34.22879,-2.69871 z"
       id="path3012-2-5"
       inkscape:connector-curvature="0"
       sodipodi:nodetypes="cccccccccccccc"
       clip-path="url(#clipPath3836-5-5)" />
    <text
       xml:space="preserve"
       style="font-size:40px;font-style:normal;font-weight:normal;line-height:125%;letter-spacing:0px;word-spacing:0px;fill:#000000;fill-opacity:1;stroke:none;font-family:Sans"
       x="439.46964"
       y="285.3952"
       id="text4055"
       sodipodi:linespacing="125%"
       transform="matrix(0.99254615,0.12186934,-0.12186934,0.99254615,0,0)"><tspan
         sodipodi:role="line"
         id="tspan4057"
         x="439.46964"
         y="285.3952"
         style="font-size:13px">Avi are you okay?</tspan></text>
    <path
       sodipodi:type="arc"
       style="color:#000000;fill:#ffffff;fill-opacity:1;fill-rule:nonzero;stroke:#000000;stroke-width:1.5;stroke-linecap:butt;stroke-linejoin:miter;stroke-miterlimit:4;stroke-opacity:1;stroke-dasharray:none;stroke-dashoffset:0;marker:none;visibility:visible;display:inline;overflow:visible;enable-background:accumulate"
       id="path3782-9-4"
       sodipodi:cx="284.28571"
       sodipodi:cy="444.50504"
       sodipodi:rx="12.857142"
       sodipodi:ry="13.571428"
       d="m 297.14285,444.50504 a 12.857142,13.571428 0 1 1 -25.71429,0 12.857142,13.571428 0 1 1 25.71429,0 z"
       transform="matrix(0.47890823,0,0,0.47890823,313.62238,170.41514)"
       clip-path="url(#clipPath3828-3-4)" />
    <path
       sodipodi:type="arc"
       style="color:#000000;fill:#ffffff;fill-opacity:1;fill-rule:nonzero;stroke:#000000;stroke-width:1.5;stroke-linecap:butt;stroke-linejoin:miter;stroke-miterlimit:4;stroke-opacity:1;stroke-dasharray:none;stroke-dashoffset:0;marker:none;visibility:visible;display:inline;overflow:visible;enable-background:accumulate"
       id="path3784-1-9"
       sodipodi:cx="300"
       sodipodi:cy="481.64789"
       sodipodi:rx="11.428572"
       sodipodi:ry="12.142858"
       d="m 311.42857,481.64789 a 11.428572,12.142858 0 1 1 -22.85714,0 11.428572,12.142858 0 1 1 22.85714,0 z"
       transform="matrix(0.47890823,0,0,0.47890823,301.3076,164.9419)"
       clip-path="url(#clipPath3824-8-3)" />
    <path
       sodipodi:type="arc"
       style="color:#000000;fill:#ffffff;fill-opacity:1;fill-rule:nonzero;stroke:#000000;stroke-width:1.5;stroke-linecap:butt;stroke-linejoin:miter;stroke-miterlimit:4;stroke-opacity:1;stroke-dasharray:none;stroke-dashoffset:0;marker:none;visibility:visible;display:inline;overflow:visible;enable-background:accumulate"
       id="path3786-8-2"
       sodipodi:cx="293.21429"
       sodipodi:cy="483.43362"
       sodipodi:rx="8.2142859"
       sodipodi:ry="8.2142859"
       d="m 301.42858,483.43362 a 8.2142859,8.2142859 0 1 1 -16.42857,0 8.2142859,8.2142859 0 1 1 16.42857,0 z"
       transform="matrix(0.47890823,0,0,0.47890823,294.97916,168.19163)"
       clip-path="url(#clipPath3820-1-3)" />
    <path
       transform="matrix(0.63125692,-0.36445636,0.36445636,0.63125692,-119.32262,-51.335597)"
       style="fill:#ffffff;fill-opacity:1;stroke:#000000;stroke-width:1.5;stroke-linecap:butt;stroke-linejoin:miter;stroke-miterlimit:4;stroke-opacity:1;stroke-dasharray:none"
       d="m 137.60587,285.18958 c 23.08864,-16.97123 41.75054,-10.79484 59.11856,1.37165 14.65735,-4.26226 35.49138,-4.51373 43.27557,10.08666 19.54387,-9.92673 29.65703,-4.57298 38.57142,5.71429 16.81818,-8.32418 36.60411,3.77847 39.66824,14.37237 10.307,5.63609 27.70872,10.81395 18.90319,31.34191 12.43426,24.19565 2.94786,38.90167 -12.35206,42.17876 -6.97695,27.22074 -18.60437,27.30433 -53.36222,27.82124 -8.87146,18.69485 -42.09563,19.1294 -65.71429,0 -50.44124,22.0194 -82.92971,-18.24415 -74.28571,-25.71428 -5.75456,8.31215 -58.626276,-5.15212 -44.285716,-45.71429 -17.77577,-22.02231 -9.74078,-24.68654 -7.14285,-31.42857 0.65366,-11.69391 13.32675,-30.40331 23.377076,-27.33103 2.02003,-7.38851 21.5436,-16.64052 34.22879,-2.69871 z"
       id="path3012-7"
       inkscape:connector-curvature="0"
       sodipodi:nodetypes="cccccccccccccc"
       clip-path="url(#clipPath3836-0)" />
    <text
       xml:space="preserve"
       style="font-size:40px;font-style:normal;font-weight:normal;line-height:125%;letter-spacing:0px;word-spacing:0px;fill:#000000;fill-opacity:1;stroke:none;font-family:Sans"
       x="105.05588"
       y="103.82896"
       id="text4125"
       sodipodi:linespacing="125%"><tspan
         sodipodi:role="line"
         id="tspan4127"
         x="105.05588"
         y="103.82896"
         style="font-size:24px">STOP</tspan></text>
    <text
       xml:space="preserve"
       style="font-size:40px;font-style:normal;font-weight:normal;line-height:125%;letter-spacing:0px;word-spacing:0px;fill:#000000;fill-opacity:1;stroke:none;font-family:Sans"
       x="42.426407"
       y="438.18945"
       id="text4129"
       sodipodi:linespacing="125%"><tspan
         sodipodi:role="line"
         id="tspan4131" /></text>
    <path
       sodipodi:type="arc"
       style="color:#000000;fill:#ffffff;fill-opacity:1;fill-rule:nonzero;stroke:#000000;stroke-width:1.5;stroke-linecap:butt;stroke-linejoin:miter;stroke-miterlimit:4;stroke-opacity:1;stroke-dasharray:none;stroke-dashoffset:0;marker:none;visibility:visible;display:inline;overflow:visible;enable-background:accumulate"
       id="path3782-9-4-3"
       sodipodi:cx="284.28571"
       sodipodi:cy="444.50504"
       sodipodi:rx="12.857142"
       sodipodi:ry="13.571428"
       d="m 297.14285,444.50504 a 12.857142,13.571428 0 1 1 -25.71429,0 12.857142,13.571428 0 1 1 25.71429,0 z"
       transform="matrix(0.47890823,0,0,0.47890823,26.498753,-61.427008)"
       clip-path="url(#clipPath3828-3-4-9)" />
    <path
       sodipodi:type="arc"
       style="color:#000000;fill:#ffffff;fill-opacity:1;fill-rule:nonzero;stroke:#000000;stroke-width:1.5;stroke-linecap:butt;stroke-linejoin:miter;stroke-miterlimit:4;stroke-opacity:1;stroke-dasharray:none;stroke-dashoffset:0;marker:none;visibility:visible;display:inline;overflow:visible;enable-background:accumulate"
       id="path3784-1-9-2"
       sodipodi:cx="300"
       sodipodi:cy="481.64789"
       sodipodi:rx="11.428572"
       sodipodi:ry="12.142858"
       d="m 311.42857,481.64789 a 11.428572,12.142858 0 1 1 -22.85714,0 11.428572,12.142858 0 1 1 22.85714,0 z"
       transform="matrix(0.47890823,0,0,0.47890823,14.183973,-66.900248)"
       clip-path="url(#clipPath3824-8-3-9)" />
    <path
       sodipodi:type="arc"
       style="color:#000000;fill:#ffffff;fill-opacity:1;fill-rule:nonzero;stroke:#000000;stroke-width:1.5;stroke-linecap:butt;stroke-linejoin:miter;stroke-miterlimit:4;stroke-opacity:1;stroke-dasharray:none;stroke-dashoffset:0;marker:none;visibility:visible;display:inline;overflow:visible;enable-background:accumulate"
       id="path3786-8-2-9"
       sodipodi:cx="293.21429"
       sodipodi:cy="483.43362"
       sodipodi:rx="8.2142859"
       sodipodi:ry="8.2142859"
       d="m 301.42858,483.43362 a 8.2142859,8.2142859 0 1 1 -16.42857,0 8.2142859,8.2142859 0 1 1 16.42857,0 z"
       transform="matrix(0.47890823,0,0,0.47890823,7.8555338,-63.650518)"
       clip-path="url(#clipPath3820-1-3-7)" />
    <path
       transform="matrix(0.71023073,-0.16396969,0.16396969,0.71023073,70.490264,-13.918673)"
       style="fill:#ffffff;fill-opacity:1;stroke:#000000;stroke-width:1.5;stroke-linecap:butt;stroke-linejoin:miter;stroke-miterlimit:4;stroke-opacity:1;stroke-dasharray:none"
       d="m 137.60587,285.18958 c 23.08864,-16.97123 41.75054,-10.79484 59.11856,1.37165 14.65735,-4.26226 35.49138,-4.51373 43.27557,10.08666 19.54387,-9.92673 29.65703,-4.57298 38.57142,5.71429 16.81818,-8.32418 36.60411,3.77847 39.66824,14.37237 10.307,5.63609 27.70872,10.81395 18.90319,31.34191 12.43426,24.19565 2.94786,38.90167 -12.35206,42.17876 -6.97695,27.22074 -18.60437,27.30433 -53.36222,27.82124 -8.87146,18.69485 -42.09563,19.1294 -65.71429,0 -50.44124,22.0194 -82.92971,-18.24415 -74.28571,-25.71428 -5.75456,8.31215 -58.626276,-5.15212 -44.285716,-45.71429 -17.77577,-22.02231 -9.74078,-24.68654 -7.14285,-31.42857 0.65366,-11.69391 13.32675,-30.40331 23.377076,-27.33103 2.02003,-7.38851 21.5436,-16.64052 34.22879,-2.69871 z"
       id="path3012-7-0"
       inkscape:connector-curvature="0"
       sodipodi:nodetypes="cccccccccccccc"
       clip-path="url(#clipPath3836-0-2)" />
    <path
       sodipodi:type="arc"
       style="color:#000000;fill:#ffffff;fill-opacity:1;fill-rule:nonzero;stroke:#000000;stroke-width:1.5;stroke-linecap:butt;stroke-linejoin:miter;stroke-miterlimit:4;stroke-opacity:1;stroke-dasharray:none;stroke-dashoffset:0;marker:none;visibility:visible;display:inline;overflow:visible;enable-background:accumulate"
       id="path3782-9-4-3-4"
       sodipodi:cx="284.28571"
       sodipodi:cy="444.50504"
       sodipodi:rx="12.857142"
       sodipodi:ry="13.571428"
       d="m 297.14285,444.50504 a 12.857142,13.571428 0 1 1 -25.71429,0 12.857142,13.571428 0 1 1 25.71429,0 z"
       transform="matrix(0.47890823,0,0,0.47890823,150.30197,44.210973)"
       clip-path="url(#clipPath3828-3-4-9-3)" />
    <path
       sodipodi:type="arc"
       style="color:#000000;fill:#ffffff;fill-opacity:1;fill-rule:nonzero;stroke:#000000;stroke-width:1.5;stroke-linecap:butt;stroke-linejoin:miter;stroke-miterlimit:4;stroke-opacity:1;stroke-dasharray:none;stroke-dashoffset:0;marker:none;visibility:visible;display:inline;overflow:visible;enable-background:accumulate"
       id="path3784-1-9-2-2"
       sodipodi:cx="300"
       sodipodi:cy="481.64789"
       sodipodi:rx="11.428572"
       sodipodi:ry="12.142858"
       d="m 311.42857,481.64789 a 11.428572,12.142858 0 1 1 -22.85714,0 11.428572,12.142858 0 1 1 22.85714,0 z"
       transform="matrix(0.47890823,0,0,0.47890823,137.98719,38.737733)"
       clip-path="url(#clipPath3824-8-3-9-8)" />
    <path
       sodipodi:type="arc"
       style="color:#000000;fill:#ffffff;fill-opacity:1;fill-rule:nonzero;stroke:#000000;stroke-width:1.5;stroke-linecap:butt;stroke-linejoin:miter;stroke-miterlimit:4;stroke-opacity:1;stroke-dasharray:none;stroke-dashoffset:0;marker:none;visibility:visible;display:inline;overflow:visible;enable-background:accumulate"
       id="path3786-8-2-9-2"
       sodipodi:cx="293.21429"
       sodipodi:cy="483.43362"
       sodipodi:rx="8.2142859"
       sodipodi:ry="8.2142859"
       d="m 301.42858,483.43362 a 8.2142859,8.2142859 0 1 1 -16.42857,0 8.2142859,8.2142859 0 1 1 16.42857,0 z"
       transform="matrix(0.47890823,0,0,0.47890823,131.65875,41.987463)"
       clip-path="url(#clipPath3820-1-3-7-2)" />
    <text
       xml:space="preserve"
       style="font-size:40px;font-style:normal;font-weight:normal;line-height:125%;letter-spacing:0px;word-spacing:0px;fill:#000000;fill-opacity:1;stroke:none;font-family:Sans"
       x="275.81104"
       y="199.4384"
       id="text4125-0"
       sodipodi:linespacing="125%"><tspan
         sodipodi:role="line"
         id="tspan4127-3"
         x="275.81104"
         y="199.4384"
         style="font-size:18px;text-align:center;text-anchor:middle">Avi, have your</tspan><tspan
         sodipodi:role="line"
         x="275.81104"
         y="221.9384"
         style="font-size:18px;text-align:center;text-anchor:middle"
         id="tspan4253"> dinner</tspan></text>
    <path
       transform="matrix(0.45354627,-0.10470941,0.10470941,0.45354627,455.60624,280.96936)"
       style="fill:#ffffff;fill-opacity:1;stroke:#000000;stroke-width:1.5;stroke-linecap:butt;stroke-linejoin:miter;stroke-miterlimit:4;stroke-opacity:1;stroke-dasharray:none"
       d="m 137.60587,285.18958 c 23.08864,-16.97123 41.75054,-10.79484 59.11856,1.37165 14.65735,-4.26226 35.49138,-4.51373 43.27557,10.08666 19.54387,-9.92673 29.65703,-4.57298 38.57142,5.71429 16.81818,-8.32418 36.60411,3.77847 39.66824,14.37237 10.307,5.63609 27.70872,10.81395 18.90319,31.34191 12.43426,24.19565 2.94786,38.90167 -12.35206,42.17876 -6.97695,27.22074 -18.60437,27.30433 -53.36222,27.82124 -8.87146,18.69485 -42.09563,19.1294 -65.71429,0 -50.44124,22.0194 -82.92971,-18.24415 -74.28571,-25.71428 -5.75456,8.31215 -58.626276,-5.15212 -44.285716,-45.71429 -17.77577,-22.02231 -9.74078,-24.68654 -7.14285,-31.42857 0.65366,-11.69391 13.32675,-30.40331 23.377076,-27.33103 2.02003,-7.38851 21.5436,-16.64052 34.22879,-2.69871 z"
       id="path3012-7-0-9"
       inkscape:connector-curvature="0"
       sodipodi:nodetypes="cccccccccccccc"
       clip-path="url(#clipPath3836-0-2-7)" />
    <path
       sodipodi:type="arc"
       style="color:#000000;fill:#ffffff;fill-opacity:1;fill-rule:nonzero;stroke:#000000;stroke-width:1.5;stroke-linecap:butt;stroke-linejoin:miter;stroke-miterlimit:4;stroke-opacity:1;stroke-dasharray:none;stroke-dashoffset:0;marker:none;visibility:visible;display:inline;overflow:visible;enable-background:accumulate"
       id="path3782-9-4-3-4-0"
       sodipodi:cx="284.28571"
       sodipodi:cy="444.50504"
       sodipodi:rx="12.857142"
       sodipodi:ry="13.571428"
       d="m 297.14285,444.50504 a 12.857142,13.571428 0 1 1 -25.71429,0 12.857142,13.571428 0 1 1 25.71429,0 z"
       transform="matrix(0.47890823,0,0,0.47890823,406.90699,174.25133)"
       clip-path="url(#clipPath3828-3-4-9-3-7)" />
    <path
       sodipodi:type="arc"
       style="color:#000000;fill:#ffffff;fill-opacity:1;fill-rule:nonzero;stroke:#000000;stroke-width:1.5;stroke-linecap:butt;stroke-linejoin:miter;stroke-miterlimit:4;stroke-opacity:1;stroke-dasharray:none;stroke-dashoffset:0;marker:none;visibility:visible;display:inline;overflow:visible;enable-background:accumulate"
       id="path3784-1-9-2-2-8"
       sodipodi:cx="300"
       sodipodi:cy="481.64789"
       sodipodi:rx="11.428572"
       sodipodi:ry="12.142858"
       d="m 311.42857,481.64789 a 11.428572,12.142858 0 1 1 -22.85714,0 11.428572,12.142858 0 1 1 22.85714,0 z"
       transform="matrix(0.47890823,0,0,0.47890823,389.35071,146.42835)"
       clip-path="url(#clipPath3824-8-3-9-8-4)" />
    <path
       sodipodi:type="arc"
       style="color:#000000;fill:#ffffff;fill-opacity:1;fill-rule:nonzero;stroke:#000000;stroke-width:1.5;stroke-linecap:butt;stroke-linejoin:miter;stroke-miterlimit:4;stroke-opacity:1;stroke-dasharray:none;stroke-dashoffset:0;marker:none;visibility:visible;display:inline;overflow:visible;enable-background:accumulate"
       id="path3786-8-2-9-2-8"
       sodipodi:cx="293.21429"
       sodipodi:cy="483.43362"
       sodipodi:rx="8.2142859"
       sodipodi:ry="8.2142859"
       d="m 301.42858,483.43362 a 8.2142859,8.2142859 0 1 1 -16.42857,0 8.2142859,8.2142859 0 1 1 16.42857,0 z"
       transform="matrix(0.47890823,0,0,0.47890823,396.56471,134.21708)"
       clip-path="url(#clipPath3820-1-3-7-2-4)" />
    <text
       xml:space="preserve"
       style="font-size:40px;font-style:normal;font-weight:normal;line-height:125%;letter-spacing:0px;word-spacing:0px;fill:#000000;fill-opacity:1;stroke:none;font-family:Sans"
       x="-571.51819"
       y="-432.58975"
       id="text4125-0-3"
       sodipodi:linespacing="125%"
       transform="matrix(-0.99939083,0.0348995,-0.0348995,-0.99939083,0,0)"><tspan
         sodipodi:role="line"
         x="-571.51819"
         y="-432.58975"
         style="font-size:16px;text-align:center;text-anchor:middle"
         id="tspan4253-8">Are you MAD?</tspan></text>
  </g>
</svg>
